EESchema Schematic File Version 4
LIBS:lmx2594-cache
EELAYER 30 0
EELAYER END
$Descr USLetter 11000 8500
encoding utf-8
Sheet 1 1
Title "LMX2594 test"
Date "2019-02-08"
Rev "1"
Comp "Harmon Instruments, LLC"
Comment1 ""
Comment2 ""
Comment3 ""
Comment4 ""
$EndDescr
$Comp
L misc:mounting_hole MH2
U 1 1 5C5E3E38
P 5900 7550
F 0 "MH2" H 6050 7350 50  0000 L CNN
F 1 "mounting_hole" H 6100 7350 50  0001 L CNN
F 2 "hole_3mm" H 6100 7450 50  0001 L CNN
F 3 "" V 6150 7550 50  0001 C CNN
	1    5900 7550
	1    0    0    -1  
$EndComp
$Comp
L misc:mounting_hole MH1
U 1 1 5C5E496A
P 5900 7400
F 0 "MH1" H 6050 7200 50  0000 L CNN
F 1 "mounting_hole" H 6100 7200 50  0001 L CNN
F 2 "hole_3mm" H 6100 7300 50  0001 L CNN
F 3 "" V 6150 7400 50  0001 C CNN
	1    5900 7400
	1    0    0    -1  
$EndComp
$Comp
L combined:ground #PWR010
U 1 1 5C5E4BCA
P 5800 7600
F 0 "#PWR010" H 5800 7600 50  0001 C CNN
F 1 "ground" H 5800 7530 50  0001 C CNN
F 2 "" H 5800 7600 50  0001 C CNN
F 3 "" H 5800 7600 50  0000 C CNN
	1    5800 7600
	0    1    1    0   
$EndComp
$Comp
L combined:ground #PWR011
U 1 1 5C5E5390
P 5800 7750
F 0 "#PWR011" H 5800 7750 50  0001 C CNN
F 1 "ground" H 5800 7680 50  0001 C CNN
F 2 "" H 5800 7750 50  0001 C CNN
F 3 "" H 5800 7750 50  0000 C CNN
	1    5800 7750
	0    1    1    0   
$EndComp
$Comp
L misc:tooling_hole TH2
U 1 1 5C5E5781
P 5950 7450
F 0 "TH2" H 6050 7450 50  0000 L CNN
F 1 "tooling_hole" H 6100 7450 50  0001 L CNN
F 2 "kicad_pcb:tooling_hole_2.55" H 6100 7550 50  0001 L CNN
F 3 "" V 6150 7650 50  0001 C CNN
	1    5950 7450
	1    0    0    -1  
$EndComp
$Comp
L misc:tooling_hole TH1
U 1 1 5C5E5C2B
P 5950 7300
F 0 "TH1" H 6050 7300 50  0000 L CNN
F 1 "tooling_hole" H 6100 7300 50  0001 L CNN
F 2 "kicad_pcb:tooling_hole_2.55" H 6100 7400 50  0001 L CNN
F 3 "" V 6150 7500 50  0001 C CNN
	1    5950 7300
	1    0    0    -1  
$EndComp
$Comp
L misc:W8R76 S1
U 1 1 5C5E609D
P 5900 7150
F 0 "S1" H 6050 7150 50  0000 L CNN
F 1 "W8R76" H 6100 7150 50  0001 L CNN
F 2 "kicad_pcb:BMI-S-230-F" H 6100 7250 50  0001 L CNN
F 3 "" V 6150 7350 50  0001 C CNN
	1    5900 7150
	1    0    0    -1  
$EndComp
$Comp
L combined:ground #PWR09
U 1 1 5C5E678D
P 5800 7150
F 0 "#PWR09" H 5800 7150 50  0001 C CNN
F 1 "ground" H 5800 7080 50  0001 C CNN
F 2 "" H 5800 7150 50  0001 C CNN
F 3 "" H 5800 7150 50  0000 C CNN
	1    5800 7150
	0    1    1    0   
$EndComp
$Comp
L ic:VFK7T U600
U 1 1 5C5E6C8C
P 3900 5950
F 0 "U600" H 3300 6800 50  0000 L CNN
F 1 "VFK7T" H 4500 6800 50  0000 R CNN
F 2 "kicad_pcb:QFN24_5x5" V 3800 6250 50  0001 R CNN
F 3 "http://www.st.com/st-web-ui/static/active/en/resource/technical/document/datasheet/DM00046749.pdf" V 3900 5850 50  0001 C CNN
	1    3900 5950
	1    0    0    -1  
$EndComp
$Comp
L connector:coax_compression P320
U 1 1 5C5E8F60
P 800 1650
F 0 "P320" H 800 1800 50  0000 C CNN
F 1 "coax_compression" H 800 1800 50  0001 C CNN
F 2 "coax_compression" H 800 1800 50  0001 C CNN
F 3 "" H 800 1650 50  0001 C CNN
	1    800  1650
	-1   0    0    -1  
$EndComp
$Comp
L combined:ground #PWR07
U 1 1 5C5E971A
P 800 1850
F 0 "#PWR07" H 800 1850 50  0001 C CNN
F 1 "ground" H 800 1780 50  0001 C CNN
F 2 "" H 800 1850 50  0001 C CNN
F 3 "" H 800 1850 50  0000 C CNN
	1    800  1850
	1    0    0    -1  
$EndComp
Text Label 950  1650 0    50   ~ 0
REFI
$Comp
L misc:CT6XQ T320
U 1 1 5C5EA085
P 1600 1750
F 0 "T320" H 1600 2000 50  0000 C CNN
F 1 "CT6XQ" H 1600 1900 50  0000 C CNN
F 2 "kicad_pcb:Macom_SM-22" H 1600 1600 50  0001 C CNN
F 3 "" V 1600 1750 50  0001 C CNN
	1    1600 1750
	1    0    0    -1  
$EndComp
$Comp
L combined:ground #PWR08
U 1 1 5C5EB396
P 1200 1950
F 0 "#PWR08" H 1200 1950 50  0001 C CNN
F 1 "ground" H 1200 1880 50  0001 C CNN
F 2 "" H 1200 1950 50  0001 C CNN
F 3 "" H 1200 1950 50  0000 C CNN
	1    1200 1950
	1    0    0    -1  
$EndComp
Wire Wire Line
	1200 1650 950  1650
Text Label 2000 1650 0    50   ~ 0
REFI+
Text Label 2000 1850 0    50   ~ 0
REFI-
$Comp
L resistor:resistor_0402 R320
U 1 1 5C5EBD5A
P 2450 1900
F 0 "R320" V 2350 1900 50  0000 C CNN
F 1 "49.9" V 2450 1900 50  0000 C CNN
F 2 "kicad_pcb:0402_R" V 2350 1700 50  0001 C CNN
F 3 "" H 2450 1900 50  0000 C CNN
	1    2450 1900
	1    0    0    -1  
$EndComp
Wire Wire Line
	2450 1650 2000 1650
Wire Wire Line
	2450 2150 2250 2150
Wire Wire Line
	2250 2150 2250 1850
Wire Wire Line
	2250 1850 2000 1850
Wire Wire Line
	1200 1850 1200 1950
$Comp
L connector:JVWW9 J600
U 1 1 5C5ED188
P 1000 5950
F 0 "J600" H 600 6100 50  0000 L CNN
F 1 "JVWW9" H 600 6000 50  0000 L CNN
F 2 "Connector_USB:USB_Micro-B_Molex_47346-0001" H 600 6000 50  0001 L CNN
F 3 "" V 850 5950 50  0001 C CNN
	1    1000 5950
	1    0    0    -1  
$EndComp
$Comp
L combined:ground #PWR01
U 1 1 5C5ED8D1
P 1150 6600
F 0 "#PWR01" H 1150 6600 50  0001 C CNN
F 1 "ground" H 1150 6530 50  0001 C CNN
F 2 "" H 1150 6600 50  0001 C CNN
F 3 "" H 1150 6600 50  0000 C CNN
	1    1150 6600
	1    0    0    -1  
$EndComp
Wire Wire Line
	1150 6600 1150 6550
Wire Wire Line
	1150 6450 1100 6450
Wire Wire Line
	1100 6550 1150 6550
Connection ~ 1150 6550
Wire Wire Line
	1150 6550 1150 6450
$Comp
L connector:TC2030-NL TP490
U 1 1 5C5EE5CE
P 5500 5850
F 0 "TP490" H 5500 5900 50  0000 L CNN
F 1 "TC2030-NL" H 5500 6000 50  0001 L CNN
F 2 "kicad_pcb:TC2030-NL" H 5500 5900 50  0001 L CNN
F 3 "" V 5750 5850 50  0001 C CNN
	1    5500 5850
	1    0    0    -1  
$EndComp
$Comp
L combined:ground #PWR06
U 1 1 5C5EF5E0
P 5350 6500
F 0 "#PWR06" H 5350 6500 50  0001 C CNN
F 1 "ground" H 5350 6430 50  0001 C CNN
F 2 "" H 5350 6500 50  0001 C CNN
F 3 "" H 5350 6500 50  0000 C CNN
	1    5350 6500
	1    0    0    -1  
$EndComp
Wire Wire Line
	5400 6450 5350 6450
Wire Wire Line
	5350 6450 5350 6500
$Comp
L combined:ground #PWR04
U 1 1 5C5EFE28
P 4650 6700
F 0 "#PWR04" H 4650 6700 50  0001 C CNN
F 1 "ground" H 4650 6630 50  0001 C CNN
F 2 "" H 4650 6700 50  0001 C CNN
F 3 "" H 4650 6700 50  0000 C CNN
	1    4650 6700
	1    0    0    -1  
$EndComp
Wire Wire Line
	4650 6700 4650 6650
Wire Wire Line
	4650 6650 4600 6650
$Comp
L combined:+3.3V #PWR05
U 1 1 5C5F0805
P 5350 5900
F 0 "#PWR05" H 5350 5860 50  0001 C CNN
F 1 "+3.3V" H 5350 6010 50  0000 C CNN
F 2 "" H 5350 5900 50  0000 C CNN
F 3 "" H 5350 5900 50  0000 C CNN
	1    5350 5900
	1    0    0    -1  
$EndComp
Wire Wire Line
	5400 5950 5350 5950
Wire Wire Line
	5350 5950 5350 5900
Wire Wire Line
	5400 6050 5100 6050
Wire Wire Line
	5400 6150 5100 6150
Text Label 5100 6050 0    50   ~ 0
SWDIO
Text Label 5100 6150 0    50   ~ 0
SWCLK
NoConn ~ 5400 6250
NoConn ~ 5400 6350
Wire Wire Line
	1450 6150 1100 6150
Wire Wire Line
	1450 6250 1100 6250
$Comp
L combined:ground #PWR02
U 1 1 5C5F5FA9
P 2200 6050
F 0 "#PWR02" H 2200 6050 50  0001 C CNN
F 1 "ground" H 2200 5980 50  0001 C CNN
F 2 "" H 2200 6050 50  0001 C CNN
F 3 "" H 2200 6050 50  0000 C CNN
	1    2200 6050
	0    -1   -1   0   
$EndComp
NoConn ~ 1100 6350
Wire Wire Line
	2700 6150 2200 6150
Wire Wire Line
	2700 6250 2200 6250
NoConn ~ 3200 5950
Wire Wire Line
	2450 6450 2450 6350
Wire Wire Line
	2450 5400 2050 5400
Wire Wire Line
	1350 6050 1100 6050
Text Label 1350 5400 0    50   ~ 0
VBUS
Text Label 4600 5250 0    50   ~ 0
ucled
$Comp
L combined:+3.3V #PWR03
U 1 1 5C5F9A4C
P 3150 5200
F 0 "#PWR03" H 3150 5160 50  0001 C CNN
F 1 "+3.3V" H 3150 5310 50  0000 C CNN
F 2 "" H 3150 5200 50  0000 C CNN
F 3 "" H 3150 5200 50  0000 C CNN
	1    3150 5200
	1    0    0    -1  
$EndComp
Wire Wire Line
	3150 5200 3150 5250
Wire Wire Line
	3150 5250 3200 5250
Wire Wire Line
	3200 5350 3150 5350
Wire Wire Line
	3150 5350 3150 5250
Connection ~ 3150 5250
Text Label 4600 5450 0    50   ~ 0
U300_CS
NoConn ~ 4600 5350
Text Label 4600 5550 0    50   ~ 0
MOSI
Text Label 4600 5650 0    50   ~ 0
MISO
Wire Wire Line
	3200 5550 3150 5550
Wire Wire Line
	3150 5550 3150 5450
Connection ~ 3150 5350
Wire Wire Line
	3200 5450 3150 5450
Connection ~ 3150 5450
Wire Wire Line
	3150 5450 3150 5350
Wire Wire Line
	3200 5650 3150 5650
Wire Wire Line
	3150 5650 3150 5550
Connection ~ 3150 5550
Text Label 4600 5850 0    50   ~ 0
SCK
Text Label 4600 6250 0    50   ~ 0
lvco_le
Text Label 4600 6350 0    50   ~ 0
VTM
$Comp
L capacitors:capacitor_0402 C320
U 1 1 5C5FE19F
P 2800 1650
F 0 "C320" V 2650 1650 50  0000 C CNN
F 1 "100 nF" V 2950 1650 50  0000 C CNN
F 2 "kicad_pcb:0402" H 2950 1550 50  0001 L CNN
F 3 "" H 2800 1650 50  0000 C CNN
	1    2800 1650
	0    1    1    0   
$EndComp
$Comp
L capacitors:capacitor_0402 C321
U 1 1 5C5FEBC2
P 2800 2150
F 0 "C321" V 2650 2150 50  0000 C CNN
F 1 "100 nF" V 2950 2150 50  0000 C CNN
F 2 "kicad_pcb:0402" H 2950 2050 50  0001 L CNN
F 3 "" H 2800 2150 50  0000 C CNN
	1    2800 2150
	0    1    1    0   
$EndComp
Wire Wire Line
	2600 1650 2450 1650
Connection ~ 2450 1650
Wire Wire Line
	2600 2150 2450 2150
Connection ~ 2450 2150
Text Label 3000 1650 0    50   ~ 0
OSCIN+
Text Label 3000 2150 0    50   ~ 0
OSCIN-
$Comp
L diode:QF838 D490
U 1 1 5C601486
P 5650 5250
F 0 "D490" H 5650 5500 50  0000 C CNN
F 1 "QF838" H 5650 5100 50  0000 C CNN
F 2 "kicad_pcb:LED_0603_1608Metric" H 5650 5250 50  0001 C CNN
F 3 "$HOME/parts/id/QF838/LG_L29K.pdf" H 5650 5250 50  0001 C CNN
	1    5650 5250
	-1   0    0    1   
$EndComp
$Comp
L resistor:resistor_0402 R490
U 1 1 5C602457
P 5250 5250
F 0 "R490" V 5150 5250 50  0000 C CNN
F 1 "4.99 k" V 5250 5250 50  0000 C CNN
F 2 "kicad_pcb:0402_R" V 5150 5050 50  0001 C CNN
F 3 "" H 5250 5250 50  0000 C CNN
	1    5250 5250
	0    1    1    0   
$EndComp
$Comp
L combined:ground #PWR028
U 1 1 5C603807
P 5800 5250
F 0 "#PWR028" H 5800 5250 50  0001 C CNN
F 1 "ground" H 5800 5180 50  0001 C CNN
F 2 "" H 5800 5250 50  0001 C CNN
F 3 "" H 5800 5250 50  0000 C CNN
	1    5800 5250
	0    -1   -1   0   
$EndComp
$Comp
L ic:BKTJX U610
U 1 1 5C6042F7
P 6800 5800
F 0 "U610" H 6800 5950 50  0000 L CNN
F 1 "BKTJX" H 6800 5850 50  0000 L CNN
F 2 "kicad_pcb:SOT23-5" H 7100 5850 50  0001 L CNN
F 3 "$HOME/parts/id/BKTJX/MCP6L91.pdf" V 7050 5800 50  0001 C CNN
	1    6800 5800
	1    0    0    -1  
$EndComp
$Comp
L combined:ground #PWR034
U 1 1 5C604D3E
P 6750 6150
F 0 "#PWR034" H 6750 6150 50  0001 C CNN
F 1 "ground" H 6750 6080 50  0001 C CNN
F 2 "" H 6750 6150 50  0001 C CNN
F 3 "" H 6750 6150 50  0000 C CNN
	1    6750 6150
	1    0    0    -1  
$EndComp
$Comp
L combined:+3.3V #PWR033
U 1 1 5C605214
P 6750 5650
F 0 "#PWR033" H 6750 5610 50  0001 C CNN
F 1 "+3.3V" H 6750 5760 50  0000 C CNN
F 2 "" H 6750 5650 50  0000 C CNN
F 3 "" H 6750 5650 50  0000 C CNN
	1    6750 5650
	1    0    0    -1  
$EndComp
Wire Wire Line
	7000 5900 7100 5900
Wire Wire Line
	7100 5900 7100 5400
Wire Wire Line
	7100 5400 6400 5400
Wire Wire Line
	6400 5400 6400 5800
Wire Wire Line
	6400 5800 6450 5800
Wire Wire Line
	7100 5900 7350 5900
Connection ~ 7100 5900
Text Label 7350 5900 2    50   ~ 0
VTM
Text Label 6250 6000 0    50   ~ 0
VT1
Wire Wire Line
	6450 6000 6250 6000
$Comp
L diode:QF838 D900
U 1 1 5C608466
P 7750 6100
F 0 "D900" H 7750 6350 50  0000 C CNN
F 1 "QF838" H 7750 5950 50  0000 C CNN
F 2 "kicad_pcb:LED_0603_1608Metric" H 7750 6100 50  0001 C CNN
F 3 "$HOME/parts/id/QF838/LG_L29K.pdf" H 7750 6100 50  0001 C CNN
	1    7750 6100
	0    -1   -1   0   
$EndComp
$Comp
L resistor:resistor_0402 R900
U 1 1 5C608470
P 7750 5700
F 0 "R900" V 7650 5700 50  0000 C CNN
F 1 "4.99 k" V 7750 5700 50  0000 C CNN
F 2 "kicad_pcb:0402_R" V 7650 5500 50  0001 C CNN
F 3 "" H 7750 5700 50  0000 C CNN
	1    7750 5700
	-1   0    0    1   
$EndComp
$Comp
L combined:ground #PWR040
U 1 1 5C60847A
P 7750 6250
F 0 "#PWR040" H 7750 6250 50  0001 C CNN
F 1 "ground" H 7750 6180 50  0001 C CNN
F 2 "" H 7750 6250 50  0001 C CNN
F 3 "" H 7750 6250 50  0000 C CNN
	1    7750 6250
	1    0    0    -1  
$EndComp
Text Label 7750 5450 0    50   ~ 0
MISO
$Comp
L capacitors:capacitor_0402 C602
U 1 1 5C60BE4C
P 3150 6900
F 0 "C602" V 3000 6900 50  0000 C CNN
F 1 "1 uF" V 3300 6900 50  0000 C CNN
F 2 "kicad_pcb:0402" H 3300 6800 50  0001 L CNN
F 3 "" H 3150 6900 50  0000 C CNN
	1    3150 6900
	1    0    0    -1  
$EndComp
$Comp
L combined:ground #PWR021
U 1 1 5C60C764
P 3150 7100
F 0 "#PWR021" H 3150 7100 50  0001 C CNN
F 1 "ground" H 3150 7030 50  0001 C CNN
F 2 "" H 3150 7100 50  0001 C CNN
F 3 "" H 3150 7100 50  0000 C CNN
	1    3150 7100
	1    0    0    -1  
$EndComp
Wire Wire Line
	3200 6650 3150 6650
Wire Wire Line
	3150 6650 3150 6700
$Comp
L capacitors:capacitor_0402 C601
U 1 1 5C60E45E
P 2750 6900
F 0 "C601" V 2600 6900 50  0000 C CNN
F 1 "1 uF" V 2900 6900 50  0000 C CNN
F 2 "kicad_pcb:0402" H 2900 6800 50  0001 L CNN
F 3 "" H 2750 6900 50  0000 C CNN
	1    2750 6900
	1    0    0    -1  
$EndComp
$Comp
L combined:ground #PWR020
U 1 1 5C60E468
P 2750 7100
F 0 "#PWR020" H 2750 7100 50  0001 C CNN
F 1 "ground" H 2750 7030 50  0001 C CNN
F 2 "" H 2750 7100 50  0001 C CNN
F 3 "" H 2750 7100 50  0000 C CNN
	1    2750 7100
	1    0    0    -1  
$EndComp
Wire Wire Line
	2750 6550 2750 6700
Text Label 2750 6550 0    50   ~ 0
VREGO
Text Label 3150 6650 2    50   ~ 0
DEC
$Comp
L capacitors:capacitor_0402 C600
U 1 1 5C610992
P 1650 5600
F 0 "C600" V 1500 5600 50  0000 C CNN
F 1 "1 uF" V 1800 5600 50  0000 C CNN
F 2 "kicad_pcb:0402" H 1800 5500 50  0001 L CNN
F 3 "" H 1650 5600 50  0000 C CNN
	1    1650 5600
	1    0    0    -1  
$EndComp
$Comp
L combined:ground #PWR012
U 1 1 5C61099C
P 1650 5800
F 0 "#PWR012" H 1650 5800 50  0001 C CNN
F 1 "ground" H 1650 5730 50  0001 C CNN
F 2 "" H 1650 5800 50  0001 C CNN
F 3 "" H 1650 5800 50  0000 C CNN
	1    1650 5800
	1    0    0    -1  
$EndComp
Connection ~ 1650 5400
Wire Wire Line
	1650 5400 1350 5400
$Comp
L capacitors:capacitor_0402 C603
U 1 1 5C614C01
P 2050 5600
F 0 "C603" V 1900 5600 50  0000 C CNN
F 1 "1 uF" V 2200 5600 50  0000 C CNN
F 2 "kicad_pcb:0402" H 2200 5500 50  0001 L CNN
F 3 "" H 2050 5600 50  0000 C CNN
	1    2050 5600
	1    0    0    -1  
$EndComp
$Comp
L combined:ground #PWR015
U 1 1 5C614C0B
P 2050 5800
F 0 "#PWR015" H 2050 5800 50  0001 C CNN
F 1 "ground" H 2050 5730 50  0001 C CNN
F 2 "" H 2050 5800 50  0001 C CNN
F 3 "" H 2050 5800 50  0000 C CNN
	1    2050 5800
	1    0    0    -1  
$EndComp
Connection ~ 2050 5400
Wire Wire Line
	2050 5400 1650 5400
NoConn ~ 4600 6450
Wire Wire Line
	4600 6150 4900 6150
Wire Wire Line
	4600 6050 4900 6050
Text Label 4900 6150 2    50   ~ 0
SWDIO
Text Label 4900 6050 2    50   ~ 0
SWCLK
NoConn ~ 4600 5950
NoConn ~ 4600 5750
$Comp
L capacitors:capacitor_1206 C351
U 1 1 5C61C14F
P 6950 1500
F 0 "C351" V 6800 1500 50  0000 C CNN
F 1 "100 nF" V 7100 1500 50  0000 C CNN
F 2 "kicad_pcb:1206" V 6950 1300 50  0001 L CNN
F 3 "" H 6950 1500 50  0000 C CNN
	1    6950 1500
	1    0    0    -1  
$EndComp
$Comp
L combined:ground #PWR036
U 1 1 5C61C4E8
P 6950 2200
F 0 "#PWR036" H 6950 2200 50  0001 C CNN
F 1 "ground" H 6950 2130 50  0001 C CNN
F 2 "" H 6950 2200 50  0001 C CNN
F 3 "" H 6950 2200 50  0000 C CNN
	1    6950 2200
	1    0    0    -1  
$EndComp
Text Label 6650 1300 0    50   ~ 0
VT0
Text Label 6950 1700 0    50   ~ 0
VT0_1
$Comp
L resistor:resistor_0402 R351
U 1 1 5C61F20E
P 6950 1950
F 0 "R351" V 6850 1950 50  0000 C CNN
F 1 "49.9" V 6950 1950 50  0000 C CNN
F 2 "kicad_pcb:0402_R" V 6850 1750 50  0001 C CNN
F 3 "" H 6950 1950 50  0000 C CNN
	1    6950 1950
	1    0    0    -1  
$EndComp
$Comp
L capacitors:capacitor_0402 C350
U 1 1 5C622704
P 6550 1500
F 0 "C350" V 6400 1500 50  0000 C CNN
F 1 "1 nF" V 6700 1500 50  0000 C CNN
F 2 "kicad_pcb:0402" H 6700 1400 50  0001 L CNN
F 3 "" H 6550 1500 50  0000 C CNN
	1    6550 1500
	1    0    0    -1  
$EndComp
$Comp
L combined:ground #PWR032
U 1 1 5C622D90
P 6550 1700
F 0 "#PWR032" H 6550 1700 50  0001 C CNN
F 1 "ground" H 6550 1630 50  0001 C CNN
F 2 "" H 6550 1700 50  0001 C CNN
F 3 "" H 6550 1700 50  0000 C CNN
	1    6550 1700
	1    0    0    -1  
$EndComp
Wire Wire Line
	6950 1300 6550 1300
$Comp
L resistor:resistor_0402 R352
U 1 1 5C62484F
P 7200 1300
F 0 "R352" V 7100 1300 50  0000 C CNN
F 1 "20" V 7200 1300 50  0000 C CNN
F 2 "kicad_pcb:0402_R" V 7100 1100 50  0001 C CNN
F 3 "" H 7200 1300 50  0000 C CNN
	1    7200 1300
	0    1    1    0   
$EndComp
Connection ~ 6950 1300
$Comp
L capacitors:capacitor_0402 C352
U 1 1 5C625234
P 7450 1500
F 0 "C352" V 7300 1500 50  0000 C CNN
F 1 "1 nF" V 7600 1500 50  0000 C CNN
F 2 "kicad_pcb:0402" H 7600 1400 50  0001 L CNN
F 3 "" H 7450 1500 50  0000 C CNN
	1    7450 1500
	1    0    0    -1  
$EndComp
$Comp
L combined:ground #PWR039
U 1 1 5C62523E
P 7450 1700
F 0 "#PWR039" H 7450 1700 50  0001 C CNN
F 1 "ground" H 7450 1630 50  0001 C CNN
F 2 "" H 7450 1700 50  0001 C CNN
F 3 "" H 7450 1700 50  0000 C CNN
	1    7450 1700
	1    0    0    -1  
$EndComp
Text Label 7450 1300 0    50   ~ 0
VT1
$Comp
L resistor:resistor_0402 R353
U 1 1 5C628D74
P 7850 1300
F 0 "R353" V 7750 1300 50  0000 C CNN
F 1 "20" V 7850 1300 50  0000 C CNN
F 2 "kicad_pcb:0402_R" V 7750 1100 50  0001 C CNN
F 3 "" H 7850 1300 50  0000 C CNN
	1    7850 1300
	0    1    1    0   
$EndComp
Wire Wire Line
	7600 1300 7450 1300
Connection ~ 7450 1300
Text Label 8100 1300 0    50   ~ 0
VT2
$Comp
L capacitors:capacitor_0805 C353
U 1 1 5C62AE6D
P 8100 1500
F 0 "C353" V 7950 1500 50  0000 C CNN
F 1 "3.3 nF" V 8250 1500 50  0000 C CNN
F 2 "kicad_pcb:0805" V 8100 1500 50  0001 C CNN
F 3 "" H 8100 1500 50  0000 C CNN
	1    8100 1500
	1    0    0    -1  
$EndComp
$Comp
L combined:ground #PWR041
U 1 1 5C62B57C
P 8100 1700
F 0 "#PWR041" H 8100 1700 50  0001 C CNN
F 1 "ground" H 8100 1630 50  0001 C CNN
F 2 "" H 8100 1700 50  0001 C CNN
F 3 "" H 8100 1700 50  0000 C CNN
	1    8100 1700
	1    0    0    -1  
$EndComp
Text Notes 6900 1100 0    50   ~ 0
All NP0 caps in loop filter
$Comp
L resistor:resistor_0402 R600
U 1 1 5C62C7B7
P 2950 6250
F 0 "R600" V 3050 6250 50  0000 C CNN
F 1 "15" V 2950 6250 50  0000 C CNN
F 2 "kicad_pcb:0402_R" V 2850 6050 50  0001 C CNN
F 3 "" H 2950 6250 50  0000 C CNN
	1    2950 6250
	0    1    1    0   
$EndComp
$Comp
L resistor:resistor_0402 R601
U 1 1 5C62CBF4
P 2950 6150
F 0 "R601" V 2850 6150 50  0000 C CNN
F 1 "15" V 2950 6150 50  0000 C CNN
F 2 "kicad_pcb:0402_R" V 2850 5950 50  0001 C CNN
F 3 "" H 2950 6150 50  0000 C CNN
	1    2950 6150
	0    1    1    0   
$EndComp
Wire Wire Line
	5000 5250 4600 5250
Wire Wire Line
	3200 6550 2750 6550
Wire Wire Line
	2450 6450 3200 6450
$Comp
L ic:DR2TQ U602
U 1 1 5C646E86
P 1700 4400
F 0 "U602" H 1700 4450 50  0000 L CNN
F 1 "DR2TQ" H 2250 4450 50  0000 R CNN
F 2 "kicad_pcb:DFN-6-1EP_2x2mm_P0.65mm_EP1x1.6mm" H 2000 4450 50  0001 L CNN
F 3 "${PARTS}/TTGT9/lp5912.pdf" V 1950 4400 50  0001 C CNN
	1    1700 4400
	1    0    0    -1  
$EndComp
Wire Wire Line
	1600 4500 1350 4500
Wire Wire Line
	1350 4500 1350 4700
Connection ~ 1350 5400
Wire Wire Line
	1600 4700 1350 4700
Connection ~ 1350 4700
Wire Wire Line
	1350 4700 1350 5400
$Comp
L combined:ground #PWR013
U 1 1 5C64A3AA
P 1900 4900
F 0 "#PWR013" H 1900 4900 50  0001 C CNN
F 1 "ground" H 1900 4830 50  0001 C CNN
F 2 "" H 1900 4900 50  0001 C CNN
F 3 "" H 1900 4900 50  0000 C CNN
	1    1900 4900
	1    0    0    -1  
$EndComp
$Comp
L combined:ground #PWR014
U 1 1 5C64A8AF
P 2000 4900
F 0 "#PWR014" H 2000 4900 50  0001 C CNN
F 1 "ground" H 2000 4830 50  0001 C CNN
F 2 "" H 2000 4900 50  0001 C CNN
F 3 "" H 2000 4900 50  0000 C CNN
	1    2000 4900
	1    0    0    -1  
$EndComp
$Comp
L combined:ground #PWR016
U 1 1 5C64A9E4
P 2100 4900
F 0 "#PWR016" H 2100 4900 50  0001 C CNN
F 1 "ground" H 2100 4830 50  0001 C CNN
F 2 "" H 2100 4900 50  0001 C CNN
F 3 "" H 2100 4900 50  0000 C CNN
	1    2100 4900
	1    0    0    -1  
$EndComp
$Comp
L combined:ground #PWR017
U 1 1 5C64ABFC
P 2200 4900
F 0 "#PWR017" H 2200 4900 50  0001 C CNN
F 1 "ground" H 2200 4830 50  0001 C CNN
F 2 "" H 2200 4900 50  0001 C CNN
F 3 "" H 2200 4900 50  0000 C CNN
	1    2200 4900
	1    0    0    -1  
$EndComp
$Comp
L combined:+3.3V #PWR018
U 1 1 5C64AD55
P 2650 4400
F 0 "#PWR018" H 2650 4360 50  0001 C CNN
F 1 "+3.3V" H 2650 4510 50  0000 C CNN
F 2 "" H 2650 4400 50  0000 C CNN
F 3 "" H 2650 4400 50  0000 C CNN
	1    2650 4400
	1    0    0    -1  
$EndComp
Wire Wire Line
	2650 4400 2650 4500
Wire Wire Line
	2650 4500 2400 4500
$Comp
L capacitors:capacitor_0402 C604
U 1 1 5C64D2EC
P 2650 4700
F 0 "C604" V 2500 4700 50  0000 C CNN
F 1 "1 uF" V 2800 4700 50  0000 C CNN
F 2 "kicad_pcb:0402" H 2800 4600 50  0001 L CNN
F 3 "" H 2650 4700 50  0000 C CNN
	1    2650 4700
	1    0    0    -1  
$EndComp
$Comp
L combined:ground #PWR019
U 1 1 5C64D2F6
P 2650 4950
F 0 "#PWR019" H 2650 4950 50  0001 C CNN
F 1 "ground" H 2650 4880 50  0001 C CNN
F 2 "" H 2650 4950 50  0001 C CNN
F 3 "" H 2650 4950 50  0000 C CNN
	1    2650 4950
	1    0    0    -1  
$EndComp
Connection ~ 2650 4500
Wire Wire Line
	2650 4950 2650 4900
$Comp
L capacitors:capacitor_0402 C605
U 1 1 5C651519
P 3050 4700
F 0 "C605" V 2900 4700 50  0000 C CNN
F 1 "1 uF" V 3200 4700 50  0000 C CNN
F 2 "kicad_pcb:0402" H 3200 4600 50  0001 L CNN
F 3 "" H 3050 4700 50  0000 C CNN
	1    3050 4700
	1    0    0    -1  
$EndComp
$Comp
L capacitors:capacitor_0402 C606
U 1 1 5C652D46
P 3450 4700
F 0 "C606" V 3300 4700 50  0000 C CNN
F 1 "1 uF" V 3600 4700 50  0000 C CNN
F 2 "kicad_pcb:0402" H 3600 4600 50  0001 L CNN
F 3 "" H 3450 4700 50  0000 C CNN
	1    3450 4700
	1    0    0    -1  
$EndComp
$Comp
L capacitors:capacitor_0402 C607
U 1 1 5C652D50
P 3850 4700
F 0 "C607" V 3700 4700 50  0000 C CNN
F 1 "1 uF" V 4000 4700 50  0000 C CNN
F 2 "kicad_pcb:0402" H 4000 4600 50  0001 L CNN
F 3 "" H 3850 4700 50  0000 C CNN
	1    3850 4700
	1    0    0    -1  
$EndComp
$Comp
L capacitors:capacitor_0402 C608
U 1 1 5C654873
P 4250 4700
F 0 "C608" V 4100 4700 50  0000 C CNN
F 1 "1 uF" V 4400 4700 50  0000 C CNN
F 2 "kicad_pcb:0402" H 4400 4600 50  0001 L CNN
F 3 "" H 4250 4700 50  0000 C CNN
	1    4250 4700
	1    0    0    -1  
$EndComp
$Comp
L capacitors:capacitor_0402 C609
U 1 1 5C65487D
P 4650 4700
F 0 "C609" V 4500 4700 50  0000 C CNN
F 1 "1 uF" V 4800 4700 50  0000 C CNN
F 2 "kicad_pcb:0402" H 4800 4600 50  0001 L CNN
F 3 "" H 4650 4700 50  0000 C CNN
	1    4650 4700
	1    0    0    -1  
$EndComp
$Comp
L capacitors:capacitor_0402 C610
U 1 1 5C654887
P 5050 4700
F 0 "C610" V 4900 4700 50  0000 C CNN
F 1 "1 uF" V 5200 4700 50  0000 C CNN
F 2 "kicad_pcb:0402" H 5200 4600 50  0001 L CNN
F 3 "" H 5050 4700 50  0000 C CNN
	1    5050 4700
	1    0    0    -1  
$EndComp
Wire Wire Line
	2650 4900 3050 4900
Connection ~ 2650 4900
Connection ~ 3050 4900
Wire Wire Line
	3050 4900 3450 4900
Connection ~ 3450 4900
Wire Wire Line
	3450 4900 3850 4900
Connection ~ 3850 4900
Wire Wire Line
	3850 4900 4250 4900
Connection ~ 4250 4900
Wire Wire Line
	4250 4900 4650 4900
Connection ~ 4650 4900
Wire Wire Line
	4650 4900 5050 4900
Wire Wire Line
	5050 4500 4650 4500
Connection ~ 3050 4500
Wire Wire Line
	3050 4500 2650 4500
Connection ~ 3450 4500
Wire Wire Line
	3450 4500 3050 4500
Connection ~ 3850 4500
Wire Wire Line
	3850 4500 3450 4500
Connection ~ 4250 4500
Wire Wire Line
	4250 4500 3850 4500
Connection ~ 4650 4500
Wire Wire Line
	4650 4500 4250 4500
$Comp
L ic:RK92B U300
U 1 1 5C6ABCF6
P 4750 1650
F 0 "U300" H 4750 1800 50  0000 L CNN
F 1 "RK92B" H 4750 1700 50  0000 L CNN
F 2 "kicad_pcb:QFN40_LMX2594" H 5050 1800 50  0001 L CNN
F 3 "" V 5000 1650 50  0001 C CNN
	1    4750 1650
	1    0    0    -1  
$EndComp
Wire Wire Line
	6550 1300 6000 1300
Connection ~ 6550 1300
$Comp
L combined:ground #PWR029
U 1 1 5C6AFCCB
P 6000 2150
F 0 "#PWR029" H 6000 2150 50  0001 C CNN
F 1 "ground" H 6000 2080 50  0001 C CNN
F 2 "" H 6000 2150 50  0001 C CNN
F 3 "" H 6000 2150 50  0000 C CNN
	1    6000 2150
	0    -1   -1   0   
$EndComp
$Comp
L combined:ground #PWR027
U 1 1 5C6B04DC
P 5750 3900
F 0 "#PWR027" H 5750 3900 50  0001 C CNN
F 1 "ground" H 5750 3830 50  0001 C CNN
F 2 "" H 5750 3900 50  0001 C CNN
F 3 "" H 5750 3900 50  0000 C CNN
	1    5750 3900
	1    0    0    -1  
$EndComp
Wire Wire Line
	5750 3850 5750 3900
Wire Wire Line
	5750 3850 5650 3850
Connection ~ 5750 3850
Connection ~ 4950 3850
Wire Wire Line
	4950 3850 4850 3850
Connection ~ 5050 3850
Wire Wire Line
	5050 3850 4950 3850
Connection ~ 5150 3850
Wire Wire Line
	5150 3850 5050 3850
Connection ~ 5250 3850
Wire Wire Line
	5250 3850 5150 3850
Connection ~ 5350 3850
Wire Wire Line
	5350 3850 5250 3850
Connection ~ 5450 3850
Wire Wire Line
	5450 3850 5350 3850
Connection ~ 5550 3850
Wire Wire Line
	5550 3850 5450 3850
Connection ~ 5650 3850
Wire Wire Line
	5650 3850 5550 3850
Wire Wire Line
	4850 3850 4600 3850
Wire Wire Line
	4600 3850 4600 3450
Connection ~ 4850 3850
Connection ~ 4600 3350
Wire Wire Line
	4600 3350 4600 3250
Connection ~ 4600 3450
Wire Wire Line
	4600 3450 4600 3350
$Comp
L combined:+3.3V #PWR026
U 1 1 5C6B81D2
P 5200 1500
F 0 "#PWR026" H 5200 1460 50  0001 C CNN
F 1 "+3.3V" H 5200 1610 50  0000 C CNN
F 2 "" H 5200 1500 50  0000 C CNN
F 3 "" H 5200 1500 50  0000 C CNN
	1    5200 1500
	1    0    0    -1  
$EndComp
Wire Wire Line
	5200 1500 5300 1500
Connection ~ 5200 1500
Connection ~ 5300 1500
Wire Wire Line
	5300 1500 5400 1500
Connection ~ 5400 1500
Wire Wire Line
	5400 1500 5500 1500
Connection ~ 5500 1500
Wire Wire Line
	5500 1500 5600 1500
Connection ~ 5600 1500
Wire Wire Line
	5600 1500 5700 1500
Wire Wire Line
	8100 1300 8450 1300
Wire Wire Line
	8450 1300 8450 950 
Wire Wire Line
	8450 950  4550 950 
Wire Wire Line
	4550 1750 4600 1750
Connection ~ 8100 1300
Wire Wire Line
	4600 2050 3850 2050
Text Label 4600 2650 2    50   ~ 0
U300_CS
$Comp
L combined:+3.3V #PWR025
U 1 1 5C6D1D52
P 4550 2300
F 0 "#PWR025" H 4550 2260 50  0001 C CNN
F 1 "+3.3V" H 4550 2410 50  0000 C CNN
F 2 "" H 4550 2300 50  0000 C CNN
F 3 "" H 4550 2300 50  0000 C CNN
	1    4550 2300
	1    0    0    -1  
$EndComp
Wire Wire Line
	4600 2350 4550 2350
Wire Wire Line
	4550 2350 4550 2300
Text Label 4600 2450 2    50   ~ 0
SCK
Text Label 4600 2550 2    50   ~ 0
MOSI
$Comp
L capacitors:capacitor_0402 C302
U 1 1 5C6D661F
P 6050 3700
F 0 "C302" V 5900 3700 50  0000 C CNN
F 1 "1 uF" V 6200 3700 50  0000 C CNN
F 2 "kicad_pcb:0402" H 6200 3600 50  0001 L CNN
F 3 "" H 6050 3700 50  0000 C CNN
	1    6050 3700
	1    0    0    -1  
$EndComp
Wire Wire Line
	6050 3500 6050 3450
Wire Wire Line
	6050 3450 6000 3450
$Comp
L combined:ground #PWR030
U 1 1 5C6DAE46
P 6050 3900
F 0 "#PWR030" H 6050 3900 50  0001 C CNN
F 1 "ground" H 6050 3830 50  0001 C CNN
F 2 "" H 6050 3900 50  0001 C CNN
F 3 "" H 6050 3900 50  0000 C CNN
	1    6050 3900
	1    0    0    -1  
$EndComp
Text Label 6000 3450 0    50   ~ 0
VregVCO
$Comp
L capacitors:capacitor_0805 C301
U 1 1 5C6DBB09
P 6450 3700
F 0 "C301" V 6300 3700 50  0000 C CNN
F 1 "10 uF" V 6600 3700 50  0000 C CNN
F 2 "kicad_pcb:0805" V 6450 3700 50  0001 C CNN
F 3 "" H 6450 3700 50  0000 C CNN
	1    6450 3700
	1    0    0    -1  
$EndComp
$Comp
L combined:ground #PWR031
U 1 1 5C6DC1C7
P 6450 3900
F 0 "#PWR031" H 6450 3900 50  0001 C CNN
F 1 "ground" H 6450 3830 50  0001 C CNN
F 2 "" H 6450 3900 50  0001 C CNN
F 3 "" H 6450 3900 50  0000 C CNN
	1    6450 3900
	1    0    0    -1  
$EndComp
Text Label 6000 3350 0    50   ~ 0
VrefVCO
Wire Wire Line
	6450 3500 6450 3350
Wire Wire Line
	6450 3350 6000 3350
Wire Wire Line
	4600 3150 4600 3250
Connection ~ 4600 3250
$Comp
L capacitors:capacitor_0805 C306
U 1 1 5C6E510B
P 6850 3700
F 0 "C306" V 6700 3700 50  0000 C CNN
F 1 "10 uF" V 7000 3700 50  0000 C CNN
F 2 "kicad_pcb:0805" V 6850 3700 50  0001 C CNN
F 3 "" H 6850 3700 50  0000 C CNN
	1    6850 3700
	1    0    0    -1  
$EndComp
$Comp
L combined:ground #PWR035
U 1 1 5C6E5115
P 6850 3900
F 0 "#PWR035" H 6850 3900 50  0001 C CNN
F 1 "ground" H 6850 3830 50  0001 C CNN
F 2 "" H 6850 3900 50  0001 C CNN
F 3 "" H 6850 3900 50  0000 C CNN
	1    6850 3900
	1    0    0    -1  
$EndComp
Text Label 6000 3250 0    50   ~ 0
VbiasVarac
Wire Wire Line
	6000 3250 6850 3250
Wire Wire Line
	6850 3250 6850 3500
Text Label 6000 2950 0    50   ~ 0
MISO
$Comp
L capacitors:capacitor_0805 C303
U 1 1 5C6EE122
P 7250 3700
F 0 "C303" V 7100 3700 50  0000 C CNN
F 1 "10 uF" V 7400 3700 50  0000 C CNN
F 2 "kicad_pcb:0805" V 7250 3700 50  0001 C CNN
F 3 "" H 7250 3700 50  0000 C CNN
	1    7250 3700
	1    0    0    -1  
$EndComp
$Comp
L combined:ground #PWR037
U 1 1 5C6EE12C
P 7250 3900
F 0 "#PWR037" H 7250 3900 50  0001 C CNN
F 1 "ground" H 7250 3830 50  0001 C CNN
F 2 "" H 7250 3900 50  0001 C CNN
F 3 "" H 7250 3900 50  0000 C CNN
	1    7250 3900
	1    0    0    -1  
$EndComp
Wire Wire Line
	6000 3150 7250 3150
Wire Wire Line
	7250 3150 7250 3500
Text Label 6000 3150 0    50   ~ 0
VrefVCO2
Wire Wire Line
	3000 2150 4600 2150
Wire Wire Line
	3850 2050 3850 1650
Wire Wire Line
	3850 1650 3000 1650
$Comp
L combined:ground #PWR038
U 1 1 5C730F00
P 7250 3900
F 0 "#PWR038" H 7250 3900 50  0001 C CNN
F 1 "ground" H 7250 3830 50  0001 C CNN
F 2 "" H 7250 3900 50  0001 C CNN
F 3 "" H 7250 3900 50  0000 C CNN
	1    7250 3900
	1    0    0    -1  
$EndComp
$Comp
L capacitors:capacitor_0402 C305
U 1 1 5C732116
P 4350 3250
F 0 "C305" V 4200 3250 50  0000 C CNN
F 1 "1 uF" V 4500 3250 50  0000 C CNN
F 2 "kicad_pcb:0402" H 4500 3150 50  0001 L CNN
F 3 "" H 4350 3250 50  0000 C CNN
	1    4350 3250
	1    0    0    -1  
$EndComp
$Comp
L combined:ground #PWR024
U 1 1 5C732120
P 4350 3450
F 0 "#PWR024" H 4350 3450 50  0001 C CNN
F 1 "ground" H 4350 3380 50  0001 C CNN
F 2 "" H 4350 3450 50  0001 C CNN
F 3 "" H 4350 3450 50  0000 C CNN
	1    4350 3450
	1    0    0    -1  
$EndComp
Wire Wire Line
	4600 3050 4350 3050
Text Label 4600 3050 2    50   ~ 0
VbiasVCO2
$Comp
L capacitors:capacitor_0805 C304
U 1 1 5C73B344
P 3950 3250
F 0 "C304" V 3800 3250 50  0000 C CNN
F 1 "10 uF" V 4100 3250 50  0000 C CNN
F 2 "kicad_pcb:0805" V 3950 3250 50  0001 C CNN
F 3 "" H 3950 3250 50  0000 C CNN
	1    3950 3250
	1    0    0    -1  
$EndComp
$Comp
L combined:ground #PWR023
U 1 1 5C73B34E
P 3950 3450
F 0 "#PWR023" H 3950 3450 50  0001 C CNN
F 1 "ground" H 3950 3380 50  0001 C CNN
F 2 "" H 3950 3450 50  0001 C CNN
F 3 "" H 3950 3450 50  0000 C CNN
	1    3950 3450
	1    0    0    -1  
$EndComp
Text Label 3950 2950 0    50   ~ 0
VbiasVCO
Wire Wire Line
	4600 2950 3950 2950
Wire Wire Line
	3950 3050 3950 2950
$Comp
L capacitors:capacitor_0402 C300
U 1 1 5C7491AD
P 3550 3250
F 0 "C300" V 3400 3250 50  0000 C CNN
F 1 "1 uF" V 3700 3250 50  0000 C CNN
F 2 "kicad_pcb:0402" H 3700 3150 50  0001 L CNN
F 3 "" H 3550 3250 50  0000 C CNN
	1    3550 3250
	1    0    0    -1  
$EndComp
$Comp
L combined:ground #PWR022
U 1 1 5C7491B7
P 3550 3450
F 0 "#PWR022" H 3550 3450 50  0001 C CNN
F 1 "ground" H 3550 3380 50  0001 C CNN
F 2 "" H 3550 3450 50  0001 C CNN
F 3 "" H 3550 3450 50  0000 C CNN
	1    3550 3450
	1    0    0    -1  
$EndComp
Text Label 3950 2850 0    50   ~ 0
VregIn
Wire Wire Line
	4600 2850 3550 2850
Wire Wire Line
	3550 2850 3550 3050
$Comp
L resistor:resistor_0402 R330
U 1 1 5C752E9C
P 8050 3850
F 0 "R330" V 7950 3850 50  0000 C CNN
F 1 "49.9" V 8050 3850 50  0000 C CNN
F 2 "kicad_pcb:0402_R" V 7950 3650 50  0001 C CNN
F 3 "" H 8050 3850 50  0000 C CNN
	1    8050 3850
	1    0    0    -1  
$EndComp
$Comp
L resistor:resistor_0402 R331
U 1 1 5C75C52F
P 8250 3850
F 0 "R331" V 8150 3850 50  0000 C CNN
F 1 "49.9" V 8250 3850 50  0000 C CNN
F 2 "kicad_pcb:0402_R" V 8150 3650 50  0001 C CNN
F 3 "" H 8250 3850 50  0000 C CNN
	1    8250 3850
	1    0    0    -1  
$EndComp
Wire Wire Line
	8250 3600 8150 3600
Wire Wire Line
	8050 4100 8050 4200
Wire Wire Line
	8050 4200 7900 4200
Wire Wire Line
	7900 2650 6000 2650
Wire Wire Line
	6000 2750 7800 2750
Wire Wire Line
	7800 4600 8250 4600
Wire Wire Line
	8250 4600 8250 4100
$Comp
L capacitors:GJB4W C330
U 1 1 5C770A11
P 8150 3350
F 0 "C330" H 8150 3500 50  0000 C BNN
F 1 "GJB4W" H 7950 3450 50  0001 L BNN
F 2 "kicad_pcb:NFM18P6V" H 8000 3500 50  0001 L BNN
F 3 "" H 8150 3400 50  0001 L BNN
	1    8150 3350
	0    -1   -1   0   
$EndComp
Wire Wire Line
	8150 3550 8150 3600
Connection ~ 8150 3600
Wire Wire Line
	8150 3600 8050 3600
$Comp
L combined:+3.3V #PWR042
U 1 1 5C776BCB
P 8150 3150
F 0 "#PWR042" H 8150 3110 50  0001 C CNN
F 1 "+3.3V" H 8150 3260 50  0000 C CNN
F 2 "" H 8150 3150 50  0000 C CNN
F 3 "" H 8150 3150 50  0000 C CNN
	1    8150 3150
	1    0    0    -1  
$EndComp
$Comp
L combined:ground #PWR043
U 1 1 5C777152
P 8300 3350
F 0 "#PWR043" H 8300 3350 50  0001 C CNN
F 1 "ground" H 8300 3280 50  0001 C CNN
F 2 "" H 8300 3350 50  0001 C CNN
F 3 "" H 8300 3350 50  0000 C CNN
	1    8300 3350
	0    -1   -1   0   
$EndComp
Text Label 8150 3600 0    50   ~ 0
VCCOUTA
$Comp
L capacitors:capacitor_0201 C332
U 1 1 5C778A4A
P 8650 4200
F 0 "C332" V 8500 4200 50  0000 C CNN
F 1 "1 nF" V 8800 4200 50  0000 C CNN
F 2 "kicad_pcb:0201" H 8800 4100 50  0001 L CNN
F 3 "" H 8650 4200 50  0000 C CNN
	1    8650 4200
	0    1    1    0   
$EndComp
$Comp
L capacitors:capacitor_0201 C333
U 1 1 5C7797EA
P 8650 4600
F 0 "C333" V 8500 4600 50  0000 C CNN
F 1 "1 nF" V 8800 4600 50  0000 C CNN
F 2 "kicad_pcb:0201" H 8800 4500 50  0001 L CNN
F 3 "" H 8650 4600 50  0000 C CNN
	1    8650 4600
	0    1    1    0   
$EndComp
Wire Wire Line
	8250 4600 8450 4600
Connection ~ 8250 4600
Wire Wire Line
	8450 4200 8050 4200
Connection ~ 8050 4200
$Comp
L connector:coax_compression P330
U 1 1 5C78E579
P 9000 4200
F 0 "P330" H 9250 4200 50  0000 C CNN
F 1 "coax_compression" H 9000 4350 50  0001 C CNN
F 2 "coax_compression" H 9000 4350 50  0001 C CNN
F 3 "" H 9000 4200 50  0001 C CNN
	1    9000 4200
	1    0    0    -1  
$EndComp
$Comp
L connector:coax_compression P331
U 1 1 5C78F31A
P 9000 4600
F 0 "P331" H 9250 4600 50  0000 C CNN
F 1 "coax_compression" H 9000 4750 50  0001 C CNN
F 2 "coax_compression" H 9000 4750 50  0001 C CNN
F 3 "" H 9000 4600 50  0001 C CNN
	1    9000 4600
	1    0    0    -1  
$EndComp
$Comp
L combined:ground #PWR044
U 1 1 5C78FD64
P 9000 4400
F 0 "#PWR044" H 9000 4400 50  0001 C CNN
F 1 "ground" H 9000 4330 50  0001 C CNN
F 2 "" H 9000 4400 50  0001 C CNN
F 3 "" H 9000 4400 50  0000 C CNN
	1    9000 4400
	1    0    0    -1  
$EndComp
$Comp
L combined:ground #PWR045
U 1 1 5C79016B
P 9000 4800
F 0 "#PWR045" H 9000 4800 50  0001 C CNN
F 1 "ground" H 9000 4730 50  0001 C CNN
F 2 "" H 9000 4800 50  0001 C CNN
F 3 "" H 9000 4800 50  0000 C CNN
	1    9000 4800
	1    0    0    -1  
$EndComp
Wire Wire Line
	7900 2650 7900 4200
Wire Wire Line
	7800 2750 7800 4600
$Comp
L capacitors:capacitor_0201 C342
U 1 1 5C7A2E7A
P 9450 2350
F 0 "C342" V 9300 2350 50  0000 C CNN
F 1 "1 nF" V 9600 2350 50  0000 C CNN
F 2 "kicad_pcb:0201" H 9600 2250 50  0001 L CNN
F 3 "" H 9450 2350 50  0000 C CNN
	1    9450 2350
	0    1    1    0   
$EndComp
$Comp
L capacitors:capacitor_0201 C343
U 1 1 5C7A2E84
P 9450 2750
F 0 "C343" V 9300 2750 50  0000 C CNN
F 1 "1 nF" V 9600 2750 50  0000 C CNN
F 2 "kicad_pcb:0201" H 9600 2650 50  0001 L CNN
F 3 "" H 9450 2750 50  0000 C CNN
	1    9450 2750
	0    1    1    0   
$EndComp
$Comp
L connector:coax_compression P340
U 1 1 5C7A2E8E
P 9800 2350
F 0 "P340" H 10050 2350 50  0000 C CNN
F 1 "coax_compression" H 9800 2500 50  0001 C CNN
F 2 "coax_compression" H 9800 2500 50  0001 C CNN
F 3 "" H 9800 2350 50  0001 C CNN
	1    9800 2350
	1    0    0    -1  
$EndComp
$Comp
L connector:coax_compression P341
U 1 1 5C7A2E98
P 9800 2750
F 0 "P341" H 10050 2750 50  0000 C CNN
F 1 "coax_compression" H 9800 2900 50  0001 C CNN
F 2 "coax_compression" H 9800 2900 50  0001 C CNN
F 3 "" H 9800 2750 50  0001 C CNN
	1    9800 2750
	1    0    0    -1  
$EndComp
$Comp
L combined:ground #PWR048
U 1 1 5C7A2EA2
P 9800 2550
F 0 "#PWR048" H 9800 2550 50  0001 C CNN
F 1 "ground" H 9800 2480 50  0001 C CNN
F 2 "" H 9800 2550 50  0001 C CNN
F 3 "" H 9800 2550 50  0000 C CNN
	1    9800 2550
	1    0    0    -1  
$EndComp
$Comp
L combined:ground #PWR049
U 1 1 5C7A2EAC
P 9800 2950
F 0 "#PWR049" H 9800 2950 50  0001 C CNN
F 1 "ground" H 9800 2880 50  0001 C CNN
F 2 "" H 9800 2950 50  0001 C CNN
F 3 "" H 9800 2950 50  0000 C CNN
	1    9800 2950
	1    0    0    -1  
$EndComp
Wire Wire Line
	8300 2450 8300 2750
Wire Wire Line
	8300 2750 9200 2750
Wire Wire Line
	6000 2450 8300 2450
Wire Wire Line
	6000 1300 6000 2050
Wire Wire Line
	4550 950  4550 1750
Wire Wire Line
	9250 2350 8950 2350
$Comp
L inductor:inductor L341
U 1 1 5C7D56E3
P 9200 1950
F 0 "L341" H 9200 2150 50  0000 C CNN
F 1 "44FWG" H 9200 2050 50  0000 C CNN
F 2 "kicad_pcb:0402" H 8950 2050 50  0001 C CNN
F 3 "" H 9200 1950 50  0000 L BNN
	1    9200 1950
	0    -1   -1   0   
$EndComp
$Comp
L inductor:inductor L340
U 1 1 5C7D64D6
P 8950 1950
F 0 "L340" H 8950 2150 50  0000 C CNN
F 1 "44FWG" H 8950 2050 50  0000 C CNN
F 2 "kicad_pcb:0402" H 8700 2050 50  0001 C CNN
F 3 "" H 8950 1950 50  0000 L BNN
	1    8950 1950
	0    -1   -1   0   
$EndComp
Wire Wire Line
	8950 2250 8950 2350
Connection ~ 8950 2350
Wire Wire Line
	8950 2350 6000 2350
Wire Wire Line
	9200 2250 9200 2750
Connection ~ 9200 2750
Wire Wire Line
	9200 2750 9250 2750
Wire Wire Line
	9200 1650 9100 1650
$Comp
L capacitors:GJB4W C340
U 1 1 5C7F040F
P 9100 1400
F 0 "C340" H 9100 1550 50  0000 C BNN
F 1 "GJB4W" H 8900 1500 50  0001 L BNN
F 2 "kicad_pcb:NFM18P6V" H 8950 1550 50  0001 L BNN
F 3 "" H 9100 1450 50  0001 L BNN
	1    9100 1400
	0    -1   -1   0   
$EndComp
Wire Wire Line
	9100 1600 9100 1650
Connection ~ 9100 1650
$Comp
L combined:+3.3V #PWR046
U 1 1 5C7F041C
P 9100 1200
F 0 "#PWR046" H 9100 1160 50  0001 C CNN
F 1 "+3.3V" H 9100 1310 50  0000 C CNN
F 2 "" H 9100 1200 50  0000 C CNN
F 3 "" H 9100 1200 50  0000 C CNN
	1    9100 1200
	1    0    0    -1  
$EndComp
$Comp
L combined:ground #PWR047
U 1 1 5C7F0426
P 9250 1400
F 0 "#PWR047" H 9250 1400 50  0001 C CNN
F 1 "ground" H 9250 1330 50  0001 C CNN
F 2 "" H 9250 1400 50  0001 C CNN
F 3 "" H 9250 1400 50  0000 C CNN
	1    9250 1400
	0    -1   -1   0   
$EndComp
Text Label 9100 1650 0    50   ~ 0
VCCOUTB
Wire Wire Line
	8950 1650 9100 1650
$Comp
L ic:8QKYD U601
U 1 1 5C5F306C
P 2100 6450
F 0 "U601" H 2100 6500 50  0000 L CNN
F 1 "8QKYD" H 2650 6500 50  0000 R CNN
F 2 "kicad_pcb:SOT23-6" H 2650 6500 50  0001 C CNN
F 3 "" H 2100 6450 50  0001 C CNN
	1    2100 6450
	-1   0    0    1   
$EndComp
Wire Wire Line
	1350 5400 1350 6050
Wire Wire Line
	2200 6350 2450 6350
Connection ~ 2450 6350
Wire Wire Line
	2450 6350 2450 5400
$EndSCHEMATC
