(kicad_sch (version 20201015) (generator eeschema)

  (paper "USLetter")

  (title_block
    (title "EFM32HG309 SPI and I2C interface")
    (date "2021-02-28")
    (rev "1")
    (company "Harmon Instruments, LLC")
  )

  (lib_symbols
    (symbol "Connector:Conn_01x04_Male" (pin_names (offset 1.016) hide) (in_bom yes) (on_board yes)
      (property "Reference" "J" (id 0) (at 0 5.08 0)
        (effects (font (size 1.27 1.27)))
      )
      (property "Value" "Conn_01x04_Male" (id 1) (at 0 -7.62 0)
        (effects (font (size 1.27 1.27)))
      )
      (property "Footprint" "" (id 2) (at 0 0 0)
        (effects (font (size 1.27 1.27)) hide)
      )
      (property "Datasheet" "~" (id 3) (at 0 0 0)
        (effects (font (size 1.27 1.27)) hide)
      )
      (property "ki_keywords" "connector" (id 4) (at 0 0 0)
        (effects (font (size 1.27 1.27)) hide)
      )
      (property "ki_description" "Generic connector, single row, 01x04, script generated (kicad-library-utils/schlib/autogen/connector/)" (id 5) (at 0 0 0)
        (effects (font (size 1.27 1.27)) hide)
      )
      (property "ki_fp_filters" "Connector*:*_1x??_*" (id 6) (at 0 0 0)
        (effects (font (size 1.27 1.27)) hide)
      )
      (symbol "Conn_01x04_Male_1_1"
        (rectangle (start 0.8636 -4.953) (end 0 -5.207)
          (stroke (width 0.1524)) (fill (type outline))
        )
        (rectangle (start 0.8636 -2.413) (end 0 -2.667)
          (stroke (width 0.1524)) (fill (type outline))
        )
        (rectangle (start 0.8636 0.127) (end 0 -0.127)
          (stroke (width 0.1524)) (fill (type outline))
        )
        (rectangle (start 0.8636 2.667) (end 0 2.413)
          (stroke (width 0.1524)) (fill (type outline))
        )
        (polyline
          (pts
            (xy 1.27 -5.08)
            (xy 0.8636 -5.08)
          )
          (stroke (width 0.1524)) (fill (type none))
        )
        (polyline
          (pts
            (xy 1.27 -2.54)
            (xy 0.8636 -2.54)
          )
          (stroke (width 0.1524)) (fill (type none))
        )
        (polyline
          (pts
            (xy 1.27 0)
            (xy 0.8636 0)
          )
          (stroke (width 0.1524)) (fill (type none))
        )
        (polyline
          (pts
            (xy 1.27 2.54)
            (xy 0.8636 2.54)
          )
          (stroke (width 0.1524)) (fill (type none))
        )
        (pin passive line (at 5.08 2.54 180) (length 3.81)
          (name "Pin_1" (effects (font (size 1.27 1.27))))
          (number "1" (effects (font (size 1.27 1.27))))
        )
        (pin passive line (at 5.08 0 180) (length 3.81)
          (name "Pin_2" (effects (font (size 1.27 1.27))))
          (number "2" (effects (font (size 1.27 1.27))))
        )
        (pin passive line (at 5.08 -2.54 180) (length 3.81)
          (name "Pin_3" (effects (font (size 1.27 1.27))))
          (number "3" (effects (font (size 1.27 1.27))))
        )
        (pin passive line (at 5.08 -5.08 180) (length 3.81)
          (name "Pin_4" (effects (font (size 1.27 1.27))))
          (number "4" (effects (font (size 1.27 1.27))))
        )
      )
    )
    (symbol "Device:C" (pin_numbers hide) (pin_names (offset 0.254)) (in_bom yes) (on_board yes)
      (property "Reference" "C" (id 0) (at 0.635 2.54 0)
        (effects (font (size 1.27 1.27)) (justify left))
      )
      (property "Value" "C" (id 1) (at 0.635 -2.54 0)
        (effects (font (size 1.27 1.27)) (justify left))
      )
      (property "Footprint" "" (id 2) (at 0.9652 -3.81 0)
        (effects (font (size 1.27 1.27)) hide)
      )
      (property "Datasheet" "~" (id 3) (at 0 0 0)
        (effects (font (size 1.27 1.27)) hide)
      )
      (property "ki_keywords" "cap capacitor" (id 4) (at 0 0 0)
        (effects (font (size 1.27 1.27)) hide)
      )
      (property "ki_description" "Unpolarized capacitor" (id 5) (at 0 0 0)
        (effects (font (size 1.27 1.27)) hide)
      )
      (property "ki_fp_filters" "C_*" (id 6) (at 0 0 0)
        (effects (font (size 1.27 1.27)) hide)
      )
      (symbol "C_0_1"
        (polyline
          (pts
            (xy -2.032 -0.762)
            (xy 2.032 -0.762)
          )
          (stroke (width 0.508)) (fill (type none))
        )
        (polyline
          (pts
            (xy -2.032 0.762)
            (xy 2.032 0.762)
          )
          (stroke (width 0.508)) (fill (type none))
        )
      )
      (symbol "C_1_1"
        (pin passive line (at 0 3.81 270) (length 2.794)
          (name "~" (effects (font (size 1.27 1.27))))
          (number "1" (effects (font (size 1.27 1.27))))
        )
        (pin passive line (at 0 -3.81 90) (length 2.794)
          (name "~" (effects (font (size 1.27 1.27))))
          (number "2" (effects (font (size 1.27 1.27))))
        )
      )
    )
    (symbol "Device:R" (pin_numbers hide) (pin_names (offset 0)) (in_bom yes) (on_board yes)
      (property "Reference" "R" (id 0) (at 2.032 0 90)
        (effects (font (size 1.27 1.27)))
      )
      (property "Value" "R" (id 1) (at 0 0 90)
        (effects (font (size 1.27 1.27)))
      )
      (property "Footprint" "" (id 2) (at -1.778 0 90)
        (effects (font (size 1.27 1.27)) hide)
      )
      (property "Datasheet" "~" (id 3) (at 0 0 0)
        (effects (font (size 1.27 1.27)) hide)
      )
      (property "ki_keywords" "R res resistor" (id 4) (at 0 0 0)
        (effects (font (size 1.27 1.27)) hide)
      )
      (property "ki_description" "Resistor" (id 5) (at 0 0 0)
        (effects (font (size 1.27 1.27)) hide)
      )
      (property "ki_fp_filters" "R_*" (id 6) (at 0 0 0)
        (effects (font (size 1.27 1.27)) hide)
      )
      (symbol "R_0_1"
        (rectangle (start -1.016 -2.54) (end 1.016 2.54)
          (stroke (width 0.254)) (fill (type none))
        )
      )
      (symbol "R_1_1"
        (pin passive line (at 0 3.81 270) (length 1.27)
          (name "~" (effects (font (size 1.27 1.27))))
          (number "1" (effects (font (size 1.27 1.27))))
        )
        (pin passive line (at 0 -3.81 90) (length 1.27)
          (name "~" (effects (font (size 1.27 1.27))))
          (number "2" (effects (font (size 1.27 1.27))))
        )
      )
    )
    (symbol "Jumper:SolderJumper_2_Bridged" (pin_names (offset 0) hide) (in_bom yes) (on_board yes)
      (property "Reference" "JP" (id 0) (at 0 2.032 0)
        (effects (font (size 1.27 1.27)))
      )
      (property "Value" "SolderJumper_2_Bridged" (id 1) (at 0 -2.54 0)
        (effects (font (size 1.27 1.27)))
      )
      (property "Footprint" "" (id 2) (at 0 0 0)
        (effects (font (size 1.27 1.27)) hide)
      )
      (property "Datasheet" "~" (id 3) (at 0 0 0)
        (effects (font (size 1.27 1.27)) hide)
      )
      (property "ki_keywords" "solder jumper SPST" (id 4) (at 0 0 0)
        (effects (font (size 1.27 1.27)) hide)
      )
      (property "ki_description" "Solder Jumper, 2-pole, closed/bridged" (id 5) (at 0 0 0)
        (effects (font (size 1.27 1.27)) hide)
      )
      (property "ki_fp_filters" "SolderJumper*Bridged*" (id 6) (at 0 0 0)
        (effects (font (size 1.27 1.27)) hide)
      )
      (symbol "SolderJumper_2_Bridged_0_1"
        (arc (start -0.254 1.016) (end -0.254 -1.016) (radius (at -0.254 0) (length 1.016) (angles 90.1 -90.1))
          (stroke (width 0)) (fill (type none))
        )
        (arc (start -0.254 1.016) (end -0.254 -1.016) (radius (at -0.254 0) (length 1.016) (angles 90.1 -90.1))
          (stroke (width 0)) (fill (type outline))
        )
        (arc (start 0.254 -1.016) (end 0.254 1.016) (radius (at 0.254 0) (length 1.016) (angles -89.9 89.9))
          (stroke (width 0)) (fill (type none))
        )
        (arc (start 0.254 -1.016) (end 0.254 1.016) (radius (at 0.254 0) (length 1.016) (angles -89.9 89.9))
          (stroke (width 0)) (fill (type outline))
        )
        (rectangle (start -0.508 0.508) (end 0.508 -0.508)
          (stroke (width 0)) (fill (type outline))
        )
        (polyline
          (pts
            (xy -0.254 1.016)
            (xy -0.254 -1.016)
          )
          (stroke (width 0)) (fill (type none))
        )
        (polyline
          (pts
            (xy 0.254 1.016)
            (xy 0.254 -1.016)
          )
          (stroke (width 0)) (fill (type none))
        )
      )
      (symbol "SolderJumper_2_Bridged_1_1"
        (pin passive line (at -3.81 0 0) (length 2.54)
          (name "A" (effects (font (size 1.27 1.27))))
          (number "1" (effects (font (size 1.27 1.27))))
        )
        (pin passive line (at 3.81 0 180) (length 2.54)
          (name "B" (effects (font (size 1.27 1.27))))
          (number "2" (effects (font (size 1.27 1.27))))
        )
      )
    )
    (symbol "combined:ground" (power) (pin_names (offset 0)) (in_bom yes) (on_board yes)
      (property "Reference" "#PWR" (id 0) (at 0 0 0)
        (effects (font (size 1.27 1.27)) hide)
      )
      (property "Value" "ground" (id 1) (at 0 -1.778 0)
        (effects (font (size 1.27 1.27)) hide)
      )
      (property "Footprint" "" (id 2) (at 0 0 0)
        (effects (font (size 1.27 1.27)) hide)
      )
      (property "Datasheet" "" (id 3) (at 0 0 0)
        (effects (font (size 1.27 1.27)))
      )
      (symbol "ground_0_1"
        (polyline
          (pts
            (xy -1.27 0)
            (xy 0 -1.27)
            (xy 1.27 0)
            (xy -1.27 0)
          )
          (stroke (width 0)) (fill (type none))
        )
      )
      (symbol "ground_1_1"
        (pin power_in line (at 0 0 90) (length 0) hide
          (name "GND" (effects (font (size 0.762 0.762))))
          (number "1" (effects (font (size 0.762 0.762))))
        )
      )
    )
    (symbol "connector:6BPPF" (pin_names (offset 1.016) hide) (in_bom yes) (on_board yes)
      (property "Reference" "P" (id 0) (at 0 3.81 0)
        (effects (font (size 1.27 1.27)))
      )
      (property "Value" "6BPPF" (id 1) (at 0 3.81 0)
        (effects (font (size 1.27 1.27)) hide)
      )
      (property "Footprint" "kicad_pcb:U.FL_Molex_MCRF_73412-0110_Vertical" (id 2) (at 0 3.81 0)
        (effects (font (size 1.27 1.27)) hide)
      )
      (property "Datasheet" "$PARTS/6BPPF/A-1JB.pdf" (id 3) (at 0 0 0)
        (effects (font (size 1.27 1.27)) hide)
      )
      (property "ki_description" "U.FL connector" (id 4) (at 0 0 0)
        (effects (font (size 1.27 1.27)) hide)
      )
      (symbol "6BPPF_0_1"
        (circle (center 0 0) (radius 0.508) (stroke (width 0.2032)) (fill (type none)))
        (circle (center 0 0) (radius 1.778) (stroke (width 0.3048)) (fill (type none)))
      )
      (symbol "6BPPF_1_1"
        (pin passive line (at -3.81 0 0) (length 3.302)
          (name "In" (effects (font (size 1.016 1.016))))
          (number "1" (effects (font (size 1.016 1.016))))
        )
        (pin passive line (at 0 -5.08 90) (length 3.302)
          (name "Ext" (effects (font (size 1.016 1.016))))
          (number "2" (effects (font (size 1.016 1.016))))
        )
      )
    )
    (symbol "connector:CGH8B" (pin_names (offset 1.016)) (in_bom yes) (on_board yes)
      (property "Reference" "J" (id 0) (at -10.16 3.81 0)
        (effects (font (size 1.27 1.27)) (justify left))
      )
      (property "Value" "CGH8B" (id 1) (at -10.16 1.27 0)
        (effects (font (size 1.27 1.27)) (justify left))
      )
      (property "Footprint" "kicad_pcb:USB_C_Receptacle_HRO_TYPE-C-31-M-12" (id 2) (at -10.16 1.27 0)
        (effects (font (size 1.27 1.27)) (justify left) hide)
      )
      (property "Datasheet" "${PARTS}/CGH8B/TYPE-C-31-M-12.pdf" (id 3) (at -3.81 0 90)
        (effects (font (size 1.27 1.27)) hide)
      )
      (property "ki_description" "USB C connector HRO 16 pin" (id 4) (at 0 0 0)
        (effects (font (size 1.27 1.27)) hide)
      )
      (property "ki_fp_filters" "USB_MINI_B_SM" (id 5) (at 0 0 0)
        (effects (font (size 1.27 1.27)) hide)
      )
      (symbol "CGH8B_0_0"
        (text "USB C" (at -8.89 -21.59 900)
          (effects (font (size 1.27 1.27)))
        )
      )
      (symbol "CGH8B_0_1"
        (rectangle (start 0 0) (end -10.16 -35.56)
          (stroke (width 0)) (fill (type background))
        )
      )
      (symbol "CGH8B_1_1"
        (pin passive line (at 3.81 -27.94 180) (length 3.81)
          (name "GND" (effects (font (size 1.27 1.27))))
          (number "A1" (effects (font (size 1.27 1.27))))
        )
        (pin passive line (at 3.81 -2.54 180) (length 3.81)
          (name "VBUS" (effects (font (size 1.27 1.27))))
          (number "A4" (effects (font (size 1.27 1.27))))
        )
        (pin passive line (at 3.81 -17.78 180) (length 3.81)
          (name "CC1" (effects (font (size 1.27 1.27))))
          (number "A5" (effects (font (size 1.27 1.27))))
        )
        (pin bidirectional line (at 3.81 -15.24 180) (length 3.81)
          (name "D+" (effects (font (size 1.27 1.27))))
          (number "A6" (effects (font (size 1.27 1.27))))
        )
        (pin bidirectional line (at 3.81 -10.16 180) (length 3.81)
          (name "D-" (effects (font (size 1.27 1.27))))
          (number "A7" (effects (font (size 1.27 1.27))))
        )
        (pin passive line (at 3.81 -22.86 180) (length 3.81)
          (name "SBU1" (effects (font (size 1.27 1.27))))
          (number "A8" (effects (font (size 1.27 1.27))))
        )
        (pin passive line (at 3.81 -30.48 180) (length 3.81)
          (name "GND" (effects (font (size 1.27 1.27))))
          (number "B1" (effects (font (size 1.27 1.27))))
        )
        (pin passive line (at 3.81 -5.08 180) (length 3.81)
          (name "VBUS" (effects (font (size 1.27 1.27))))
          (number "B4" (effects (font (size 1.27 1.27))))
        )
        (pin passive line (at 3.81 -20.32 180) (length 3.81)
          (name "CC2" (effects (font (size 1.27 1.27))))
          (number "B5" (effects (font (size 1.27 1.27))))
        )
        (pin bidirectional line (at 3.81 -12.7 180) (length 3.81)
          (name "D+" (effects (font (size 1.27 1.27))))
          (number "B6" (effects (font (size 1.27 1.27))))
        )
        (pin bidirectional line (at 3.81 -7.62 180) (length 3.81)
          (name "D-" (effects (font (size 1.27 1.27))))
          (number "B7" (effects (font (size 1.27 1.27))))
        )
        (pin passive line (at 3.81 -25.4 180) (length 3.81)
          (name "SBU2" (effects (font (size 1.27 1.27))))
          (number "B8" (effects (font (size 1.27 1.27))))
        )
        (pin passive line (at 3.81 -33.02 180) (length 3.81)
          (name "Shield" (effects (font (size 1.27 1.27))))
          (number "S1" (effects (font (size 1.27 1.27))))
        )
      )
    )
    (symbol "connector:SWD" (pin_names (offset 1.016)) (in_bom yes) (on_board yes)
      (property "Reference" "P" (id 0) (at 0 3.81 0)
        (effects (font (size 1.27 1.27)) (justify left))
      )
      (property "Value" "SWD" (id 1) (at 0 1.27 0)
        (effects (font (size 1.27 1.27)) (justify left))
      )
      (property "Footprint" "Connector_Hirose:Hirose_DF13-04P-1.25DSA_1x04_P1.25mm_Vertical" (id 2) (at 0 1.27 0)
        (effects (font (size 1.27 1.27)) (justify left) hide)
      )
      (property "Datasheet" "" (id 3) (at 6.35 0 90)
        (effects (font (size 1.27 1.27)))
      )
      (property "ki_description" "ARM Serial Wire Debug" (id 4) (at 0 0 0)
        (effects (font (size 1.27 1.27)) hide)
      )
      (symbol "SWD_0_1"
        (rectangle (start 0 0) (end 7.62 -12.7)
          (stroke (width 0)) (fill (type background))
        )
      )
      (symbol "SWD_1_1"
        (pin power_in line (at -2.54 -2.54 0) (length 2.54)
          (name "VCC" (effects (font (size 1.27 1.27))))
          (number "1" (effects (font (size 1.27 1.27))))
        )
        (pin output line (at -2.54 -5.08 0) (length 2.54)
          (name "SWCLK" (effects (font (size 1.27 1.27))))
          (number "2" (effects (font (size 1.27 1.27))))
        )
        (pin bidirectional line (at -2.54 -7.62 0) (length 2.54)
          (name "SWDIO" (effects (font (size 1.27 1.27))))
          (number "3" (effects (font (size 1.27 1.27))))
        )
        (pin power_in line (at -2.54 -10.16 0) (length 2.54)
          (name "GND" (effects (font (size 1.27 1.27))))
          (number "4" (effects (font (size 1.27 1.27))))
        )
      )
    )
    (symbol "diode:QF838" (pin_numbers hide) (pin_names (offset 1.016) hide) (in_bom yes) (on_board yes)
      (property "Reference" "D" (id 0) (at 0 2.54 0)
        (effects (font (size 1.27 1.27)))
      )
      (property "Value" "QF838" (id 1) (at 0 -2.54 0)
        (effects (font (size 1.27 1.27)))
      )
      (property "Footprint" "kicad_pcb:LED_0603_1608Metric" (id 2) (at 0 0 0)
        (effects (font (size 1.27 1.27)) hide)
      )
      (property "Datasheet" "$PARTS/QF838/LG_L29K.pdf" (id 3) (at 0 0 0)
        (effects (font (size 1.27 1.27)) hide)
      )
      (property "ki_keywords" "LED diode" (id 4) (at 0 0 0)
        (effects (font (size 1.27 1.27)) hide)
      )
      (property "ki_description" "Green Light emitting diode" (id 5) (at 0 0 0)
        (effects (font (size 1.27 1.27)) hide)
      )
      (property "ki_fp_filters" "LED* LED_SMD:* LED_THT:*" (id 6) (at 0 0 0)
        (effects (font (size 1.27 1.27)) hide)
      )
      (symbol "QF838_0_1"
        (polyline
          (pts
            (xy -1.27 -1.27)
            (xy -1.27 1.27)
          )
          (stroke (width 0.2032)) (fill (type none))
        )
        (polyline
          (pts
            (xy -1.27 0)
            (xy 1.27 0)
          )
          (stroke (width 0)) (fill (type none))
        )
        (polyline
          (pts
            (xy 1.27 -1.27)
            (xy 1.27 1.27)
            (xy -1.27 0)
            (xy 1.27 -1.27)
          )
          (stroke (width 0.2032)) (fill (type none))
        )
        (polyline
          (pts
            (xy -3.048 -0.762)
            (xy -4.572 -2.286)
            (xy -3.81 -2.286)
            (xy -4.572 -2.286)
            (xy -4.572 -1.524)
          )
          (stroke (width 0)) (fill (type none))
        )
        (polyline
          (pts
            (xy -1.778 -0.762)
            (xy -3.302 -2.286)
            (xy -2.54 -2.286)
            (xy -3.302 -2.286)
            (xy -3.302 -1.524)
          )
          (stroke (width 0)) (fill (type none))
        )
      )
      (symbol "QF838_1_1"
        (pin passive line (at -3.81 0 0) (length 2.54)
          (name "K" (effects (font (size 1.27 1.27))))
          (number "1" (effects (font (size 1.27 1.27))))
        )
        (pin passive line (at 3.81 0 180) (length 2.54)
          (name "A" (effects (font (size 1.27 1.27))))
          (number "2" (effects (font (size 1.27 1.27))))
        )
      )
    )
    (symbol "ic:VFK7T" (in_bom yes) (on_board yes)
      (property "Reference" "U" (id 0) (at -15.24 21.59 0)
        (effects (font (size 1.27 1.27)) (justify left))
      )
      (property "Value" "VFK7T" (id 1) (at 15.24 21.59 0)
        (effects (font (size 1.27 1.27)) (justify right))
      )
      (property "Footprint" "kicad_pcb:QFN-24-1EP_5x5mm_P0.65mm_EP3.6x3.6mm" (id 2) (at 0 19.05 90)
        (effects (font (size 1.27 1.27)) (justify right) hide)
      )
      (property "Datasheet" "$PARTS/VFK7T/efm32hg-datasheet.pdf" (id 3) (at 0 -2.54 90)
        (effects (font (size 1.27 1.27)) hide)
      )
      (property "ki_keywords" "Happy Gecko" (id 4) (at 0 0 0)
        (effects (font (size 1.27 1.27)) hide)
      )
      (property "ki_description" "EFM32HG309 ARM Cortex M0+ microcontroller with USB" (id 5) (at 0 0 0)
        (effects (font (size 1.27 1.27)) hide)
      )
      (property "ki_fp_filters" "LQFP*7x7mm*P0.5mm*" (id 6) (at 0 0 0)
        (effects (font (size 1.27 1.27)) hide)
      )
      (symbol "VFK7T_0_0"
        (text "EFM32HG309" (at 0 2.54 0)
          (effects (font (size 1.27 1.27)))
        )
      )
      (symbol "VFK7T_0_1"
        (rectangle (start -15.24 -20.32) (end 15.24 20.32)
          (stroke (width 0.254)) (fill (type background))
        )
      )
      (symbol "VFK7T_1_1"
        (pin bidirectional line (at 17.78 17.78 180) (length 2.54)
          (name "PA0" (effects (font (size 1.27 1.27))))
          (number "1" (effects (font (size 1.27 1.27))))
        )
        (pin bidirectional line (at 17.78 2.54 180) (length 2.54)
          (name "PB13" (effects (font (size 1.27 1.27))))
          (number "10" (effects (font (size 1.27 1.27))))
        )
        (pin bidirectional line (at 17.78 0 180) (length 2.54)
          (name "PB14" (effects (font (size 1.27 1.27))))
          (number "11" (effects (font (size 1.27 1.27))))
        )
        (pin power_in line (at -17.78 12.7 0) (length 2.54)
          (name "AVDD" (effects (font (size 1.27 1.27))))
          (number "12" (effects (font (size 1.27 1.27))))
        )
        (pin power_in line (at -17.78 7.62 0) (length 2.54)
          (name "VDD_DREG" (effects (font (size 1.27 1.27))))
          (number "13" (effects (font (size 1.27 1.27))))
        )
        (pin passive line (at -17.78 -17.78 0) (length 2.54)
          (name "DECOUPLE" (effects (font (size 1.27 1.27))))
          (number "14" (effects (font (size 1.27 1.27))))
        )
        (pin power_in line (at -17.78 -12.7 0) (length 2.54)
          (name "USB_VREGI" (effects (font (size 1.27 1.27))))
          (number "15" (effects (font (size 1.27 1.27))))
        )
        (pin power_out line (at -17.78 -15.24 0) (length 2.54)
          (name "USB_VREGO" (effects (font (size 1.27 1.27))))
          (number "16" (effects (font (size 1.27 1.27))))
        )
        (pin bidirectional line (at -17.78 -5.08 0) (length 2.54)
          (name "PC14_USBD-" (effects (font (size 1.27 1.27))))
          (number "17" (effects (font (size 1.27 1.27))))
        )
        (pin bidirectional line (at -17.78 -7.62 0) (length 2.54)
          (name "PC15_USBD+" (effects (font (size 1.27 1.27))))
          (number "18" (effects (font (size 1.27 1.27))))
        )
        (pin bidirectional line (at 17.78 -2.54 180) (length 2.54)
          (name "PF0_SWCLK" (effects (font (size 1.27 1.27))))
          (number "19" (effects (font (size 1.27 1.27))))
        )
        (pin power_in line (at -17.78 15.24 0) (length 2.54)
          (name "IOVDD" (effects (font (size 1.27 1.27))))
          (number "2" (effects (font (size 1.27 1.27))))
        )
        (pin bidirectional line (at 17.78 -5.08 180) (length 2.54)
          (name "PF1_SWDIO" (effects (font (size 1.27 1.27))))
          (number "20" (effects (font (size 1.27 1.27))))
        )
        (pin bidirectional line (at 17.78 -7.62 180) (length 2.54)
          (name "PF2" (effects (font (size 1.27 1.27))))
          (number "21" (effects (font (size 1.27 1.27))))
        )
        (pin power_in line (at -17.78 17.78 0) (length 2.54)
          (name "IOVDD" (effects (font (size 1.27 1.27))))
          (number "22" (effects (font (size 1.27 1.27))))
        )
        (pin bidirectional line (at 17.78 -10.16 180) (length 2.54)
          (name "PE12_ADC" (effects (font (size 1.27 1.27))))
          (number "23" (effects (font (size 1.27 1.27))))
        )
        (pin bidirectional line (at 17.78 -12.7 180) (length 2.54)
          (name "PE13_ADC" (effects (font (size 1.27 1.27))))
          (number "24" (effects (font (size 1.27 1.27))))
        )
        (pin power_in line (at 17.78 -17.78 180) (length 2.54)
          (name "VSS" (effects (font (size 1.27 1.27))))
          (number "25" (effects (font (size 1.27 1.27))))
        )
        (pin bidirectional line (at 17.78 15.24 180) (length 2.54)
          (name "PC0" (effects (font (size 1.27 1.27))))
          (number "3" (effects (font (size 1.27 1.27))))
        )
        (pin bidirectional line (at 17.78 12.7 180) (length 2.54)
          (name "PC1" (effects (font (size 1.27 1.27))))
          (number "4" (effects (font (size 1.27 1.27))))
        )
        (pin bidirectional line (at 17.78 10.16 180) (length 2.54)
          (name "PB7" (effects (font (size 1.27 1.27))))
          (number "5" (effects (font (size 1.27 1.27))))
        )
        (pin bidirectional line (at 17.78 7.62 180) (length 2.54)
          (name "PB8" (effects (font (size 1.27 1.27))))
          (number "6" (effects (font (size 1.27 1.27))))
        )
        (pin input line (at -17.78 0 0) (length 2.54)
          (name "~RST" (effects (font (size 1.27 1.27))))
          (number "7" (effects (font (size 1.27 1.27))))
        )
        (pin bidirectional line (at 17.78 5.08 180) (length 2.54)
          (name "PB11" (effects (font (size 1.27 1.27))))
          (number "8" (effects (font (size 1.27 1.27))))
        )
        (pin power_in line (at -17.78 10.16 0) (length 2.54)
          (name "AVDD" (effects (font (size 1.27 1.27))))
          (number "9" (effects (font (size 1.27 1.27))))
        )
      )
    )
    (symbol "misc:tooling_hole" (pin_numbers hide) (pin_names (offset 1.016) hide) (in_bom yes) (on_board yes)
      (property "Reference" "TH" (id 0) (at 2.54 0 0)
        (effects (font (size 1.27 1.27)) (justify left))
      )
      (property "Value" "tooling_hole" (id 1) (at 3.81 0 0)
        (effects (font (size 1.27 1.27)) (justify left) hide)
      )
      (property "Footprint" "kicad_pcb:tooling_hole_2.55" (id 2) (at 3.81 2.54 0)
        (effects (font (size 1.27 1.27)) (justify left) hide)
      )
      (property "Datasheet" "" (id 3) (at 5.08 5.08 90)
        (effects (font (size 1.27 1.27)) hide)
      )
      (property "ki_description" "Tooling hole for stencil alignment" (id 4) (at 0 0 0)
        (effects (font (size 1.27 1.27)) hide)
      )
      (symbol "tooling_hole_0_0"
        (circle (center 0 0) (radius 1.27) (stroke (width 0)) (fill (type none)))
      )
    )
    (symbol "power:+3.3V" (power) (pin_names (offset 0)) (in_bom yes) (on_board yes)
      (property "Reference" "#PWR" (id 0) (at 0 -3.81 0)
        (effects (font (size 1.27 1.27)) hide)
      )
      (property "Value" "+3.3V" (id 1) (at 0 3.556 0)
        (effects (font (size 1.27 1.27)))
      )
      (property "Footprint" "" (id 2) (at 0 0 0)
        (effects (font (size 1.27 1.27)) hide)
      )
      (property "Datasheet" "" (id 3) (at 0 0 0)
        (effects (font (size 1.27 1.27)) hide)
      )
      (property "ki_keywords" "power-flag" (id 4) (at 0 0 0)
        (effects (font (size 1.27 1.27)) hide)
      )
      (property "ki_description" "Power symbol creates a global label with name \"+3.3V\"" (id 5) (at 0 0 0)
        (effects (font (size 1.27 1.27)) hide)
      )
      (symbol "+3.3V_0_1"
        (polyline
          (pts
            (xy -0.762 1.27)
            (xy 0 2.54)
          )
          (stroke (width 0)) (fill (type none))
        )
        (polyline
          (pts
            (xy 0 0)
            (xy 0 2.54)
          )
          (stroke (width 0)) (fill (type none))
        )
        (polyline
          (pts
            (xy 0 2.54)
            (xy 0.762 1.27)
          )
          (stroke (width 0)) (fill (type none))
        )
      )
      (symbol "+3.3V_1_1"
        (pin power_in line (at 0 0 90) (length 0) hide
          (name "+3V3" (effects (font (size 1.27 1.27))))
          (number "1" (effects (font (size 1.27 1.27))))
        )
      )
    )
    (symbol "power:GND" (power) (pin_names (offset 0)) (in_bom yes) (on_board yes)
      (property "Reference" "#PWR" (id 0) (at 0 -6.35 0)
        (effects (font (size 1.27 1.27)) hide)
      )
      (property "Value" "GND" (id 1) (at 0 -3.81 0)
        (effects (font (size 1.27 1.27)))
      )
      (property "Footprint" "" (id 2) (at 0 0 0)
        (effects (font (size 1.27 1.27)) hide)
      )
      (property "Datasheet" "" (id 3) (at 0 0 0)
        (effects (font (size 1.27 1.27)) hide)
      )
      (property "ki_keywords" "power-flag" (id 4) (at 0 0 0)
        (effects (font (size 1.27 1.27)) hide)
      )
      (property "ki_description" "Power symbol creates a global label with name \"GND\" , ground" (id 5) (at 0 0 0)
        (effects (font (size 1.27 1.27)) hide)
      )
      (symbol "GND_0_1"
        (polyline
          (pts
            (xy 0 0)
            (xy 0 -1.27)
            (xy 1.27 -1.27)
            (xy 0 -2.54)
            (xy -1.27 -1.27)
            (xy 0 -1.27)
          )
          (stroke (width 0)) (fill (type none))
        )
      )
      (symbol "GND_1_1"
        (pin power_in line (at 0 0 270) (length 0) hide
          (name "GND" (effects (font (size 1.27 1.27))))
          (number "1" (effects (font (size 1.27 1.27))))
        )
      )
    )
  )


  (junction (at 49.53 106.68) (diameter 1.016) (color 0 0 0 0))
  (junction (at 49.53 109.22) (diameter 1.016) (color 0 0 0 0))
  (junction (at 50.8 99.06) (diameter 1.016) (color 0 0 0 0))
  (junction (at 50.8 127) (diameter 1.016) (color 0 0 0 0))
  (junction (at 50.8 129.54) (diameter 1.016) (color 0 0 0 0))
  (junction (at 67.31 95.25) (diameter 1.016) (color 0 0 0 0))
  (junction (at 92.71 67.31) (diameter 1.016) (color 0 0 0 0))
  (junction (at 92.71 74.93) (diameter 1.016) (color 0 0 0 0))
  (junction (at 95.25 116.84) (diameter 1.016) (color 0 0 0 0))
  (junction (at 105.41 83.82) (diameter 1.016) (color 0 0 0 0))
  (junction (at 105.41 86.36) (diameter 1.016) (color 0 0 0 0))
  (junction (at 105.41 88.9) (diameter 1.016) (color 0 0 0 0))
  (junction (at 105.41 91.44) (diameter 1.016) (color 0 0 0 0))

  (no_connect (at 49.53 119.38))
  (no_connect (at 49.53 121.92))
  (no_connect (at 142.24 109.22))

  (wire (pts (xy 49.53 104.14) (xy 49.53 106.68))
    (stroke (width 0) (type solid) (color 0 0 0 0))
  )
  (wire (pts (xy 49.53 106.68) (xy 99.06 106.68))
    (stroke (width 0) (type solid) (color 0 0 0 0))
  )
  (wire (pts (xy 49.53 109.22) (xy 49.53 111.76))
    (stroke (width 0) (type solid) (color 0 0 0 0))
  )
  (wire (pts (xy 49.53 109.22) (xy 99.06 109.22))
    (stroke (width 0) (type solid) (color 0 0 0 0))
  )
  (wire (pts (xy 49.53 114.3) (xy 62.23 114.3))
    (stroke (width 0) (type solid) (color 0 0 0 0))
  )
  (wire (pts (xy 49.53 116.84) (xy 57.15 116.84))
    (stroke (width 0) (type solid) (color 0 0 0 0))
  )
  (wire (pts (xy 49.53 129.54) (xy 50.8 129.54))
    (stroke (width 0) (type solid) (color 0 0 0 0))
  )
  (wire (pts (xy 50.8 95.25) (xy 50.8 99.06))
    (stroke (width 0) (type solid) (color 0 0 0 0))
  )
  (wire (pts (xy 50.8 95.25) (xy 67.31 95.25))
    (stroke (width 0) (type solid) (color 0 0 0 0))
  )
  (wire (pts (xy 50.8 99.06) (xy 49.53 99.06))
    (stroke (width 0) (type solid) (color 0 0 0 0))
  )
  (wire (pts (xy 50.8 101.6) (xy 49.53 101.6))
    (stroke (width 0) (type solid) (color 0 0 0 0))
  )
  (wire (pts (xy 50.8 101.6) (xy 50.8 99.06))
    (stroke (width 0) (type solid) (color 0 0 0 0))
  )
  (wire (pts (xy 50.8 124.46) (xy 49.53 124.46))
    (stroke (width 0) (type solid) (color 0 0 0 0))
  )
  (wire (pts (xy 50.8 127) (xy 49.53 127))
    (stroke (width 0) (type solid) (color 0 0 0 0))
  )
  (wire (pts (xy 50.8 127) (xy 50.8 124.46))
    (stroke (width 0) (type solid) (color 0 0 0 0))
  )
  (wire (pts (xy 50.8 129.54) (xy 50.8 127))
    (stroke (width 0) (type solid) (color 0 0 0 0))
  )
  (wire (pts (xy 50.8 130.81) (xy 50.8 129.54))
    (stroke (width 0) (type solid) (color 0 0 0 0))
  )
  (wire (pts (xy 57.15 116.84) (xy 57.15 119.38))
    (stroke (width 0) (type solid) (color 0 0 0 0))
  )
  (wire (pts (xy 62.23 114.3) (xy 62.23 119.38))
    (stroke (width 0) (type solid) (color 0 0 0 0))
  )
  (wire (pts (xy 67.31 95.25) (xy 87.63 95.25))
    (stroke (width 0) (type solid) (color 0 0 0 0))
  )
  (wire (pts (xy 87.63 95.25) (xy 87.63 114.3))
    (stroke (width 0) (type solid) (color 0 0 0 0))
  )
  (wire (pts (xy 87.63 114.3) (xy 106.68 114.3))
    (stroke (width 0) (type solid) (color 0 0 0 0))
  )
  (wire (pts (xy 87.63 116.84) (xy 95.25 116.84))
    (stroke (width 0) (type solid) (color 0 0 0 0))
  )
  (wire (pts (xy 92.71 66.04) (xy 92.71 67.31))
    (stroke (width 0) (type solid) (color 0 0 0 0))
  )
  (wire (pts (xy 92.71 67.31) (xy 102.87 67.31))
    (stroke (width 0) (type solid) (color 0 0 0 0))
  )
  (wire (pts (xy 92.71 74.93) (xy 102.87 74.93))
    (stroke (width 0) (type solid) (color 0 0 0 0))
  )
  (wire (pts (xy 92.71 76.2) (xy 92.71 74.93))
    (stroke (width 0) (type solid) (color 0 0 0 0))
  )
  (wire (pts (xy 95.25 116.84) (xy 95.25 120.65))
    (stroke (width 0) (type solid) (color 0 0 0 0))
  )
  (wire (pts (xy 105.41 82.55) (xy 105.41 83.82))
    (stroke (width 0) (type solid) (color 0 0 0 0))
  )
  (wire (pts (xy 105.41 83.82) (xy 106.68 83.82))
    (stroke (width 0) (type solid) (color 0 0 0 0))
  )
  (wire (pts (xy 105.41 86.36) (xy 105.41 83.82))
    (stroke (width 0) (type solid) (color 0 0 0 0))
  )
  (wire (pts (xy 105.41 88.9) (xy 105.41 86.36))
    (stroke (width 0) (type solid) (color 0 0 0 0))
  )
  (wire (pts (xy 105.41 91.44) (xy 105.41 88.9))
    (stroke (width 0) (type solid) (color 0 0 0 0))
  )
  (wire (pts (xy 105.41 93.98) (xy 105.41 91.44))
    (stroke (width 0) (type solid) (color 0 0 0 0))
  )
  (wire (pts (xy 105.41 119.38) (xy 105.41 120.65))
    (stroke (width 0) (type solid) (color 0 0 0 0))
  )
  (wire (pts (xy 106.68 86.36) (xy 105.41 86.36))
    (stroke (width 0) (type solid) (color 0 0 0 0))
  )
  (wire (pts (xy 106.68 88.9) (xy 105.41 88.9))
    (stroke (width 0) (type solid) (color 0 0 0 0))
  )
  (wire (pts (xy 106.68 91.44) (xy 105.41 91.44))
    (stroke (width 0) (type solid) (color 0 0 0 0))
  )
  (wire (pts (xy 106.68 93.98) (xy 105.41 93.98))
    (stroke (width 0) (type solid) (color 0 0 0 0))
  )
  (wire (pts (xy 106.68 116.84) (xy 95.25 116.84))
    (stroke (width 0) (type solid) (color 0 0 0 0))
  )
  (wire (pts (xy 106.68 119.38) (xy 105.41 119.38))
    (stroke (width 0) (type solid) (color 0 0 0 0))
  )
  (wire (pts (xy 142.24 104.14) (xy 154.94 104.14))
    (stroke (width 0) (type solid) (color 0 0 0 0))
  )
  (wire (pts (xy 142.24 106.68) (xy 154.94 106.68))
    (stroke (width 0) (type solid) (color 0 0 0 0))
  )
  (wire (pts (xy 143.51 119.38) (xy 142.24 119.38))
    (stroke (width 0) (type solid) (color 0 0 0 0))
  )
  (wire (pts (xy 143.51 120.65) (xy 143.51 119.38))
    (stroke (width 0) (type solid) (color 0 0 0 0))
  )
  (wire (pts (xy 152.4 83.82) (xy 142.24 83.82))
    (stroke (width 0) (type solid) (color 0 0 0 0))
  )
  (wire (pts (xy 153.67 101.6) (xy 153.67 100.33))
    (stroke (width 0) (type solid) (color 0 0 0 0))
  )
  (wire (pts (xy 153.67 109.22) (xy 153.67 110.49))
    (stroke (width 0) (type solid) (color 0 0 0 0))
  )
  (wire (pts (xy 154.94 101.6) (xy 153.67 101.6))
    (stroke (width 0) (type solid) (color 0 0 0 0))
  )
  (wire (pts (xy 154.94 109.22) (xy 153.67 109.22))
    (stroke (width 0) (type solid) (color 0 0 0 0))
  )

  (text "Adafruit\nStemma QT" (at 194.31 125.73 0)
    (effects (font (size 1.27 1.27)) (justify left bottom))
  )

  (label "CC1" (at 49.53 114.3 0)
    (effects (font (size 1.27 1.27)) (justify left bottom))
  )
  (label "CC2" (at 49.53 116.84 0)
    (effects (font (size 1.27 1.27)) (justify left bottom))
  )
  (label "D-" (at 57.15 106.68 0)
    (effects (font (size 1.27 1.27)) (justify left bottom))
  )
  (label "D+" (at 57.15 109.22 0)
    (effects (font (size 1.27 1.27)) (justify left bottom))
  )
  (label "VBUS" (at 59.69 95.25 0)
    (effects (font (size 1.27 1.27)) (justify left bottom))
  )
  (label "VREGO" (at 95.25 116.84 0)
    (effects (font (size 1.27 1.27)) (justify left bottom))
  )
  (label "DEC" (at 105.41 119.38 180)
    (effects (font (size 1.27 1.27)) (justify right bottom))
  )
  (label "~RESET" (at 106.68 101.6 180)
    (effects (font (size 1.27 1.27)) (justify right bottom))
  )
  (label "ucled" (at 142.24 83.82 0)
    (effects (font (size 1.27 1.27)) (justify left bottom))
  )
  (label "SDA" (at 142.24 86.36 0)
    (effects (font (size 1.27 1.27)) (justify left bottom))
  )
  (label "SCL" (at 142.24 88.9 0)
    (effects (font (size 1.27 1.27)) (justify left bottom))
  )
  (label "COPI" (at 142.24 91.44 0)
    (effects (font (size 1.27 1.27)) (justify left bottom))
  )
  (label "CIPO" (at 142.24 93.98 0)
    (effects (font (size 1.27 1.27)) (justify left bottom))
  )
  (label "LE0" (at 142.24 96.52 0)
    (effects (font (size 1.27 1.27)) (justify left bottom))
  )
  (label "SCK" (at 142.24 99.06 0)
    (effects (font (size 1.27 1.27)) (justify left bottom))
  )
  (label "LE1" (at 142.24 101.6 0)
    (effects (font (size 1.27 1.27)) (justify left bottom))
  )
  (label "ADC0" (at 142.24 111.76 0)
    (effects (font (size 1.27 1.27)) (justify left bottom))
  )
  (label "ADC1" (at 142.24 114.3 0)
    (effects (font (size 1.27 1.27)) (justify left bottom))
  )
  (label "SWCLK" (at 149.86 104.14 180)
    (effects (font (size 1.27 1.27)) (justify right bottom))
  )
  (label "SWDIO" (at 149.86 106.68 180)
    (effects (font (size 1.27 1.27)) (justify right bottom))
  )
  (label "ADC0" (at 154.94 152.4 0)
    (effects (font (size 1.27 1.27)) (justify left bottom))
  )
  (label "ADC1" (at 154.94 154.94 0)
    (effects (font (size 1.27 1.27)) (justify left bottom))
  )
  (label "LE1" (at 184.15 52.07 180)
    (effects (font (size 1.27 1.27)) (justify right bottom))
  )
  (label "LE0" (at 184.15 64.77 180)
    (effects (font (size 1.27 1.27)) (justify right bottom))
  )
  (label "CIPO" (at 184.15 77.47 180)
    (effects (font (size 1.27 1.27)) (justify right bottom))
  )
  (label "COPI" (at 184.15 90.17 180)
    (effects (font (size 1.27 1.27)) (justify right bottom))
  )
  (label "SCK" (at 184.15 102.87 180)
    (effects (font (size 1.27 1.27)) (justify right bottom))
  )
  (label "SDA" (at 184.15 125.73 0)
    (effects (font (size 1.27 1.27)) (justify left bottom))
  )
  (label "SCL" (at 184.15 128.27 0)
    (effects (font (size 1.27 1.27)) (justify left bottom))
  )

  (symbol (lib_id "combined:ground") (at 154.94 147.32 90) (unit 1)
    (in_bom yes) (on_board yes)
    (uuid "474ec2c8-da0f-4b0c-bae6-9d662f9033f0")
    (property "Reference" "#PWR0112" (id 0) (at 154.94 147.32 0)
      (effects (font (size 1.27 1.27)) hide)
    )
    (property "Value" "ground" (id 1) (at 156.718 147.32 0)
      (effects (font (size 1.27 1.27)) hide)
    )
    (property "Footprint" "" (id 2) (at 154.94 147.32 0)
      (effects (font (size 1.27 1.27)) hide)
    )
    (property "Datasheet" "" (id 3) (at 154.94 147.32 0))
  )

  (symbol (lib_id "combined:ground") (at 184.15 120.65 90) (unit 1)
    (in_bom yes) (on_board yes)
    (uuid "c93c3db6-0399-4b49-adbf-249edfd8c7e3")
    (property "Reference" "#PWR0109" (id 0) (at 184.15 120.65 0)
      (effects (font (size 1.27 1.27)) hide)
    )
    (property "Value" "ground" (id 1) (at 185.928 120.65 0)
      (effects (font (size 1.27 1.27)) hide)
    )
    (property "Footprint" "" (id 2) (at 184.15 120.65 0)
      (effects (font (size 1.27 1.27)) hide)
    )
    (property "Datasheet" "" (id 3) (at 184.15 120.65 0))
  )

  (symbol (lib_id "misc:tooling_hole") (at 176.53 135.89 0) (unit 1)
    (in_bom yes) (on_board yes)
    (uuid "00000000-0000-0000-0000-00005c5e5c2b")
    (property "Reference" "TH1" (id 0) (at 179.07 135.89 0)
      (effects (font (size 1.27 1.27)) (justify left))
    )
    (property "Value" "tooling_hole" (id 1) (at 180.34 135.89 0)
      (effects (font (size 1.27 1.27)) (justify left) hide)
    )
    (property "Footprint" "kicad_pcb:tooling_hole_2.55" (id 2) (at 180.34 133.35 0)
      (effects (font (size 1.27 1.27)) (justify left) hide)
    )
    (property "Datasheet" "" (id 3) (at 181.61 130.81 90)
      (effects (font (size 1.27 1.27)) hide)
    )
  )

  (symbol (lib_id "misc:tooling_hole") (at 176.53 139.7 0) (unit 1)
    (in_bom yes) (on_board yes)
    (uuid "00000000-0000-0000-0000-00005c5e5781")
    (property "Reference" "TH2" (id 0) (at 179.07 139.7 0)
      (effects (font (size 1.27 1.27)) (justify left))
    )
    (property "Value" "tooling_hole" (id 1) (at 180.34 139.7 0)
      (effects (font (size 1.27 1.27)) (justify left) hide)
    )
    (property "Footprint" "kicad_pcb:tooling_hole_2.55" (id 2) (at 180.34 137.16 0)
      (effects (font (size 1.27 1.27)) (justify left) hide)
    )
    (property "Datasheet" "" (id 3) (at 181.61 134.62 90)
      (effects (font (size 1.27 1.27)) hide)
    )
  )

  (symbol (lib_id "power:+3.3V") (at 80.01 116.84 90) (unit 1)
    (in_bom yes) (on_board yes)
    (uuid "d4c8cfa2-d6d0-42b5-b2db-83292b0affef")
    (property "Reference" "#PWR0104" (id 0) (at 83.82 116.84 0)
      (effects (font (size 1.27 1.27)) hide)
    )
    (property "Value" "+3.3V" (id 1) (at 76.8349 116.4717 90)
      (effects (font (size 1.27 1.27)) (justify left))
    )
    (property "Footprint" "" (id 2) (at 80.01 116.84 0)
      (effects (font (size 1.27 1.27)) hide)
    )
    (property "Datasheet" "" (id 3) (at 80.01 116.84 0)
      (effects (font (size 1.27 1.27)) hide)
    )
  )

  (symbol (lib_id "power:+3.3V") (at 92.71 66.04 0) (unit 1)
    (in_bom yes) (on_board yes)
    (uuid "75866108-06c4-44c3-a123-6dd187003397")
    (property "Reference" "#PWR0101" (id 0) (at 92.71 69.85 0)
      (effects (font (size 1.27 1.27)) hide)
    )
    (property "Value" "+3.3V" (id 1) (at 93.0783 61.7156 0))
    (property "Footprint" "" (id 2) (at 92.71 66.04 0)
      (effects (font (size 1.27 1.27)) hide)
    )
    (property "Datasheet" "" (id 3) (at 92.71 66.04 0)
      (effects (font (size 1.27 1.27)) hide)
    )
  )

  (symbol (lib_id "power:+3.3V") (at 105.41 82.55 0) (unit 1)
    (in_bom yes) (on_board yes)
    (uuid "671b5f9b-dcad-4172-b756-4824d12c08a5")
    (property "Reference" "#PWR0102" (id 0) (at 105.41 86.36 0)
      (effects (font (size 1.27 1.27)) hide)
    )
    (property "Value" "+3.3V" (id 1) (at 105.7783 78.2256 0))
    (property "Footprint" "" (id 2) (at 105.41 82.55 0)
      (effects (font (size 1.27 1.27)) hide)
    )
    (property "Datasheet" "" (id 3) (at 105.41 82.55 0)
      (effects (font (size 1.27 1.27)) hide)
    )
  )

  (symbol (lib_id "power:+3.3V") (at 153.67 100.33 0) (unit 1)
    (in_bom yes) (on_board yes)
    (uuid "f5386a48-88c8-4472-aeb4-b061609f69c3")
    (property "Reference" "#PWR0103" (id 0) (at 153.67 104.14 0)
      (effects (font (size 1.27 1.27)) hide)
    )
    (property "Value" "+3.3V" (id 1) (at 154.0383 96.0056 0))
    (property "Footprint" "" (id 2) (at 153.67 100.33 0)
      (effects (font (size 1.27 1.27)) hide)
    )
    (property "Datasheet" "" (id 3) (at 153.67 100.33 0)
      (effects (font (size 1.27 1.27)) hide)
    )
  )

  (symbol (lib_id "power:+3.3V") (at 154.94 149.86 270) (unit 1)
    (in_bom yes) (on_board yes)
    (uuid "6e5979e5-4a17-4fba-bdd8-df5ae1b23158")
    (property "Reference" "#PWR0111" (id 0) (at 151.13 149.86 0)
      (effects (font (size 1.27 1.27)) hide)
    )
    (property "Value" "+3.3V" (id 1) (at 158.1151 150.2283 90)
      (effects (font (size 1.27 1.27)) (justify left))
    )
    (property "Footprint" "" (id 2) (at 154.94 149.86 0)
      (effects (font (size 1.27 1.27)) hide)
    )
    (property "Datasheet" "" (id 3) (at 154.94 149.86 0)
      (effects (font (size 1.27 1.27)) hide)
    )
  )

  (symbol (lib_id "power:+3.3V") (at 184.15 123.19 270) (unit 1)
    (in_bom yes) (on_board yes)
    (uuid "d2091610-ae5a-4940-b9e9-fe60e1b614b1")
    (property "Reference" "#PWR0110" (id 0) (at 180.34 123.19 0)
      (effects (font (size 1.27 1.27)) hide)
    )
    (property "Value" "+3.3V" (id 1) (at 187.3251 123.5583 90)
      (effects (font (size 1.27 1.27)) (justify left))
    )
    (property "Footprint" "" (id 2) (at 184.15 123.19 0)
      (effects (font (size 1.27 1.27)) hide)
    )
    (property "Datasheet" "" (id 3) (at 184.15 123.19 0)
      (effects (font (size 1.27 1.27)) hide)
    )
  )

  (symbol (lib_id "power:GND") (at 50.8 130.81 0) (unit 1)
    (in_bom yes) (on_board yes)
    (uuid "00000000-0000-0000-0000-00005c5ed8d1")
    (property "Reference" "#PWR01" (id 0) (at 50.8 130.81 0)
      (effects (font (size 1.27 1.27)) hide)
    )
    (property "Value" "GND" (id 1) (at 50.8 132.588 0)
      (effects (font (size 1.27 1.27)) hide)
    )
    (property "Footprint" "" (id 2) (at 50.8 130.81 0)
      (effects (font (size 1.27 1.27)) hide)
    )
    (property "Datasheet" "" (id 3) (at 50.8 130.81 0)
      (effects (font (size 1.27 1.27)) hide)
    )
  )

  (symbol (lib_id "power:GND") (at 57.15 127 0) (unit 1)
    (in_bom yes) (on_board yes)
    (uuid "339046f2-9d27-41f8-9857-481b64c3234a")
    (property "Reference" "#PWR02" (id 0) (at 57.15 127 0)
      (effects (font (size 1.27 1.27)) hide)
    )
    (property "Value" "ground" (id 1) (at 57.15 128.778 0)
      (effects (font (size 1.27 1.27)) hide)
    )
    (property "Footprint" "" (id 2) (at 57.15 127 0)
      (effects (font (size 1.27 1.27)) hide)
    )
    (property "Datasheet" "" (id 3) (at 57.15 127 0)
      (effects (font (size 1.27 1.27)) hide)
    )
  )

  (symbol (lib_id "power:GND") (at 62.23 127 0) (unit 1)
    (in_bom yes) (on_board yes)
    (uuid "b7f0eb16-b882-494a-a5ca-96363e50d5bf")
    (property "Reference" "#PWR03" (id 0) (at 62.23 127 0)
      (effects (font (size 1.27 1.27)) hide)
    )
    (property "Value" "ground" (id 1) (at 62.23 128.778 0)
      (effects (font (size 1.27 1.27)) hide)
    )
    (property "Footprint" "" (id 2) (at 62.23 127 0)
      (effects (font (size 1.27 1.27)) hide)
    )
    (property "Datasheet" "" (id 3) (at 62.23 127 0)
      (effects (font (size 1.27 1.27)) hide)
    )
  )

  (symbol (lib_id "power:GND") (at 67.31 102.87 0) (unit 1)
    (in_bom yes) (on_board yes)
    (uuid "00000000-0000-0000-0000-00005c61099c")
    (property "Reference" "#PWR04" (id 0) (at 67.31 102.87 0)
      (effects (font (size 1.27 1.27)) hide)
    )
    (property "Value" "ground" (id 1) (at 67.31 104.648 0)
      (effects (font (size 1.27 1.27)) hide)
    )
    (property "Footprint" "" (id 2) (at 67.31 102.87 0)
      (effects (font (size 1.27 1.27)) hide)
    )
    (property "Datasheet" "" (id 3) (at 67.31 102.87 0)
      (effects (font (size 1.27 1.27)) hide)
    )
  )

  (symbol (lib_id "power:GND") (at 92.71 76.2 0) (unit 1)
    (in_bom yes) (on_board yes)
    (uuid "00000000-0000-0000-0000-00005c64d2f6")
    (property "Reference" "#PWR011" (id 0) (at 92.71 76.2 0)
      (effects (font (size 1.27 1.27)) hide)
    )
    (property "Value" "ground" (id 1) (at 92.71 77.978 0)
      (effects (font (size 1.27 1.27)) hide)
    )
    (property "Footprint" "" (id 2) (at 92.71 76.2 0)
      (effects (font (size 1.27 1.27)) hide)
    )
    (property "Datasheet" "" (id 3) (at 92.71 76.2 0)
      (effects (font (size 1.27 1.27)) hide)
    )
  )

  (symbol (lib_id "power:GND") (at 95.25 128.27 0) (unit 1)
    (in_bom yes) (on_board yes)
    (uuid "00000000-0000-0000-0000-00005c60e468")
    (property "Reference" "#PWR012" (id 0) (at 95.25 128.27 0)
      (effects (font (size 1.27 1.27)) hide)
    )
    (property "Value" "ground" (id 1) (at 95.25 130.048 0)
      (effects (font (size 1.27 1.27)) hide)
    )
    (property "Footprint" "" (id 2) (at 95.25 128.27 0)
      (effects (font (size 1.27 1.27)) hide)
    )
    (property "Datasheet" "" (id 3) (at 95.25 128.27 0)
      (effects (font (size 1.27 1.27)) hide)
    )
  )

  (symbol (lib_id "power:GND") (at 105.41 128.27 0) (unit 1)
    (in_bom yes) (on_board yes)
    (uuid "00000000-0000-0000-0000-00005c60c764")
    (property "Reference" "#PWR014" (id 0) (at 105.41 128.27 0)
      (effects (font (size 1.27 1.27)) hide)
    )
    (property "Value" "ground" (id 1) (at 105.41 130.048 0)
      (effects (font (size 1.27 1.27)) hide)
    )
    (property "Footprint" "" (id 2) (at 105.41 128.27 0)
      (effects (font (size 1.27 1.27)) hide)
    )
    (property "Datasheet" "" (id 3) (at 105.41 128.27 0)
      (effects (font (size 1.27 1.27)) hide)
    )
  )

  (symbol (lib_id "power:GND") (at 143.51 120.65 0) (unit 1)
    (in_bom yes) (on_board yes)
    (uuid "00000000-0000-0000-0000-00005c5efe28")
    (property "Reference" "#PWR015" (id 0) (at 143.51 120.65 0)
      (effects (font (size 1.27 1.27)) hide)
    )
    (property "Value" "ground" (id 1) (at 143.51 122.428 0)
      (effects (font (size 1.27 1.27)) hide)
    )
    (property "Footprint" "" (id 2) (at 143.51 120.65 0)
      (effects (font (size 1.27 1.27)) hide)
    )
    (property "Datasheet" "" (id 3) (at 143.51 120.65 0)
      (effects (font (size 1.27 1.27)) hide)
    )
  )

  (symbol (lib_id "power:GND") (at 153.67 110.49 0) (unit 1)
    (in_bom yes) (on_board yes)
    (uuid "00000000-0000-0000-0000-00005c5ef5e0")
    (property "Reference" "#PWR017" (id 0) (at 153.67 110.49 0)
      (effects (font (size 1.27 1.27)) hide)
    )
    (property "Value" "ground" (id 1) (at 153.67 112.268 0)
      (effects (font (size 1.27 1.27)) hide)
    )
    (property "Footprint" "" (id 2) (at 153.67 110.49 0)
      (effects (font (size 1.27 1.27)) hide)
    )
    (property "Datasheet" "" (id 3) (at 153.67 110.49 0)
      (effects (font (size 1.27 1.27)) hide)
    )
  )

  (symbol (lib_id "power:GND") (at 167.64 83.82 90) (unit 1)
    (in_bom yes) (on_board yes)
    (uuid "00000000-0000-0000-0000-00005c603807")
    (property "Reference" "#PWR018" (id 0) (at 167.64 83.82 0)
      (effects (font (size 1.27 1.27)) hide)
    )
    (property "Value" "ground" (id 1) (at 169.418 83.82 0)
      (effects (font (size 1.27 1.27)) hide)
    )
    (property "Footprint" "" (id 2) (at 167.64 83.82 0)
      (effects (font (size 1.27 1.27)) hide)
    )
    (property "Datasheet" "" (id 3) (at 167.64 83.82 0)
      (effects (font (size 1.27 1.27)) hide)
    )
  )

  (symbol (lib_id "power:GND") (at 195.58 57.15 0) (unit 1)
    (in_bom yes) (on_board yes)
    (uuid "0ca550cb-a934-4221-a531-8e58d92600c4")
    (property "Reference" "#PWR0113" (id 0) (at 195.58 57.15 0)
      (effects (font (size 1.27 1.27)) hide)
    )
    (property "Value" "ground" (id 1) (at 195.58 58.928 0)
      (effects (font (size 1.27 1.27)) hide)
    )
    (property "Footprint" "" (id 2) (at 195.58 57.15 0)
      (effects (font (size 1.27 1.27)) hide)
    )
    (property "Datasheet" "" (id 3) (at 195.58 57.15 0)
      (effects (font (size 1.27 1.27)) hide)
    )
  )

  (symbol (lib_id "power:GND") (at 195.58 69.85 0) (unit 1)
    (in_bom yes) (on_board yes)
    (uuid "d2468309-3ff8-4a11-a979-091d028c317d")
    (property "Reference" "#PWR0108" (id 0) (at 195.58 69.85 0)
      (effects (font (size 1.27 1.27)) hide)
    )
    (property "Value" "ground" (id 1) (at 195.58 71.628 0)
      (effects (font (size 1.27 1.27)) hide)
    )
    (property "Footprint" "" (id 2) (at 195.58 69.85 0)
      (effects (font (size 1.27 1.27)) hide)
    )
    (property "Datasheet" "" (id 3) (at 195.58 69.85 0)
      (effects (font (size 1.27 1.27)) hide)
    )
  )

  (symbol (lib_id "power:GND") (at 195.58 82.55 0) (unit 1)
    (in_bom yes) (on_board yes)
    (uuid "7c3f522f-a0f1-4eb7-8fb5-5c66a5291da3")
    (property "Reference" "#PWR0107" (id 0) (at 195.58 82.55 0)
      (effects (font (size 1.27 1.27)) hide)
    )
    (property "Value" "ground" (id 1) (at 195.58 84.328 0)
      (effects (font (size 1.27 1.27)) hide)
    )
    (property "Footprint" "" (id 2) (at 195.58 82.55 0)
      (effects (font (size 1.27 1.27)) hide)
    )
    (property "Datasheet" "" (id 3) (at 195.58 82.55 0)
      (effects (font (size 1.27 1.27)) hide)
    )
  )

  (symbol (lib_id "power:GND") (at 195.58 95.25 0) (unit 1)
    (in_bom yes) (on_board yes)
    (uuid "2ffdec92-421c-4fde-8047-7da5997b7bbf")
    (property "Reference" "#PWR0105" (id 0) (at 195.58 95.25 0)
      (effects (font (size 1.27 1.27)) hide)
    )
    (property "Value" "ground" (id 1) (at 195.58 97.028 0)
      (effects (font (size 1.27 1.27)) hide)
    )
    (property "Footprint" "" (id 2) (at 195.58 95.25 0)
      (effects (font (size 1.27 1.27)) hide)
    )
    (property "Datasheet" "" (id 3) (at 195.58 95.25 0)
      (effects (font (size 1.27 1.27)) hide)
    )
  )

  (symbol (lib_id "power:GND") (at 195.58 107.95 0) (unit 1)
    (in_bom yes) (on_board yes)
    (uuid "6a1829ea-0fdb-4ec0-89c1-fbd8d5d3c026")
    (property "Reference" "#PWR0106" (id 0) (at 195.58 107.95 0)
      (effects (font (size 1.27 1.27)) hide)
    )
    (property "Value" "ground" (id 1) (at 195.58 109.728 0)
      (effects (font (size 1.27 1.27)) hide)
    )
    (property "Footprint" "" (id 2) (at 195.58 107.95 0)
      (effects (font (size 1.27 1.27)) hide)
    )
    (property "Datasheet" "" (id 3) (at 195.58 107.95 0)
      (effects (font (size 1.27 1.27)) hide)
    )
  )

  (symbol (lib_id "Device:R") (at 57.15 123.19 180) (unit 1)
    (in_bom yes) (on_board yes)
    (uuid "8a423037-e707-4f3d-a725-f8bf569ce0ed")
    (property "Reference" "R1" (id 0) (at 59.69 123.19 90))
    (property "Value" "5.1 k" (id 1) (at 57.15 123.19 90)
      (effects (font (size 1.016 1.016)))
    )
    (property "Footprint" "kicad_pcb:R_0402_1005Metric" (id 2) (at 59.69 118.11 90)
      (effects (font (size 1.27 1.27)) hide)
    )
    (property "Datasheet" "" (id 3) (at 57.15 123.19 0))
  )

  (symbol (lib_id "Device:R") (at 62.23 123.19 180) (unit 1)
    (in_bom yes) (on_board yes)
    (uuid "0e9282ba-2ad7-4ae4-944e-a3db728cdeda")
    (property "Reference" "R2" (id 0) (at 64.77 123.19 90))
    (property "Value" "5.1 k" (id 1) (at 62.23 123.19 90)
      (effects (font (size 1.016 1.016)))
    )
    (property "Footprint" "kicad_pcb:R_0402_1005Metric" (id 2) (at 64.77 118.11 90)
      (effects (font (size 1.27 1.27)) hide)
    )
    (property "Datasheet" "" (id 3) (at 62.23 123.19 0))
  )

  (symbol (lib_id "Device:R") (at 102.87 106.68 270) (unit 1)
    (in_bom yes) (on_board yes)
    (uuid "00000000-0000-0000-0000-00005c62cbf4")
    (property "Reference" "R3" (id 0) (at 102.87 104.14 90))
    (property "Value" "15" (id 1) (at 102.87 106.68 90))
    (property "Footprint" "kicad_pcb:R_0402_1005Metric" (id 2) (at 97.79 104.14 90)
      (effects (font (size 1.27 1.27)) hide)
    )
    (property "Datasheet" "" (id 3) (at 102.87 106.68 0))
  )

  (symbol (lib_id "Device:R") (at 102.87 109.22 270) (unit 1)
    (in_bom yes) (on_board yes)
    (uuid "00000000-0000-0000-0000-00005c62c7b7")
    (property "Reference" "R4" (id 0) (at 102.87 111.76 90))
    (property "Value" "15" (id 1) (at 102.87 109.22 90))
    (property "Footprint" "kicad_pcb:R_0402_1005Metric" (id 2) (at 97.79 106.68 90)
      (effects (font (size 1.27 1.27)) hide)
    )
    (property "Datasheet" "" (id 3) (at 102.87 109.22 0))
  )

  (symbol (lib_id "Device:R") (at 156.21 83.82 270) (unit 1)
    (in_bom yes) (on_board yes)
    (uuid "00000000-0000-0000-0000-00005c602457")
    (property "Reference" "R5" (id 0) (at 156.21 81.28 90))
    (property "Value" "5.1 k" (id 1) (at 156.21 83.82 90)
      (effects (font (size 1.016 1.016)))
    )
    (property "Footprint" "kicad_pcb:R_0402_1005Metric" (id 2) (at 151.13 81.28 90)
      (effects (font (size 1.27 1.27)) hide)
    )
    (property "Datasheet" "" (id 3) (at 156.21 83.82 0))
  )

  (symbol (lib_id "Device:R") (at 187.96 52.07 270) (unit 1)
    (in_bom yes) (on_board yes)
    (uuid "f2f15061-6d20-4535-948b-1801eef8e79e")
    (property "Reference" "R10" (id 0) (at 187.96 49.53 90))
    (property "Value" "330" (id 1) (at 187.96 52.07 90)
      (effects (font (size 1.016 1.016)))
    )
    (property "Footprint" "kicad_pcb:R_0402_1005Metric" (id 2) (at 182.88 49.53 90)
      (effects (font (size 1.27 1.27)) hide)
    )
    (property "Datasheet" "" (id 3) (at 187.96 52.07 0))
  )

  (symbol (lib_id "Device:R") (at 187.96 64.77 270) (unit 1)
    (in_bom yes) (on_board yes)
    (uuid "b69b7440-0cda-4b52-b1de-bb87ef83e8c9")
    (property "Reference" "R6" (id 0) (at 187.96 62.23 90))
    (property "Value" "330" (id 1) (at 187.96 64.77 90)
      (effects (font (size 1.016 1.016)))
    )
    (property "Footprint" "kicad_pcb:R_0402_1005Metric" (id 2) (at 182.88 62.23 90)
      (effects (font (size 1.27 1.27)) hide)
    )
    (property "Datasheet" "" (id 3) (at 187.96 64.77 0))
  )

  (symbol (lib_id "Device:R") (at 187.96 77.47 270) (unit 1)
    (in_bom yes) (on_board yes)
    (uuid "cb185f7f-21c5-4ce8-bb72-6bcb11026ada")
    (property "Reference" "R7" (id 0) (at 187.96 74.93 90))
    (property "Value" "330" (id 1) (at 187.96 77.47 90)
      (effects (font (size 1.016 1.016)))
    )
    (property "Footprint" "kicad_pcb:R_0402_1005Metric" (id 2) (at 182.88 74.93 90)
      (effects (font (size 1.27 1.27)) hide)
    )
    (property "Datasheet" "" (id 3) (at 187.96 77.47 0))
  )

  (symbol (lib_id "Device:R") (at 187.96 90.17 270) (unit 1)
    (in_bom yes) (on_board yes)
    (uuid "d818231a-cc8c-4861-8985-84313fe1a07e")
    (property "Reference" "R8" (id 0) (at 187.96 87.63 90))
    (property "Value" "330" (id 1) (at 187.96 90.17 90)
      (effects (font (size 1.016 1.016)))
    )
    (property "Footprint" "kicad_pcb:R_0402_1005Metric" (id 2) (at 182.88 87.63 90)
      (effects (font (size 1.27 1.27)) hide)
    )
    (property "Datasheet" "" (id 3) (at 187.96 90.17 0))
  )

  (symbol (lib_id "Device:R") (at 187.96 102.87 270) (unit 1)
    (in_bom yes) (on_board yes)
    (uuid "f018c541-7542-43cb-a98b-988f6bb6ee04")
    (property "Reference" "R9" (id 0) (at 187.96 100.33 90))
    (property "Value" "330" (id 1) (at 187.96 102.87 90)
      (effects (font (size 1.016 1.016)))
    )
    (property "Footprint" "kicad_pcb:R_0402_1005Metric" (id 2) (at 182.88 100.33 90)
      (effects (font (size 1.27 1.27)) hide)
    )
    (property "Datasheet" "" (id 3) (at 187.96 102.87 0))
  )

  (symbol (lib_id "Jumper:SolderJumper_2_Bridged") (at 83.82 116.84 0) (unit 1)
    (in_bom yes) (on_board yes)
    (uuid "9d5eeca6-b646-45e9-ad00-3cef0bf4a883")
    (property "Reference" "JP1" (id 0) (at 83.82 114.2808 0))
    (property "Value" "SolderJumper_2_Bridged" (id 1) (at 85.09 112.776 0)
      (effects (font (size 1.27 1.27)) hide)
    )
    (property "Footprint" "Jumper:SolderJumper-2_P1.3mm_Bridged_RoundedPad1.0x1.5mm" (id 2) (at 83.82 116.84 0)
      (effects (font (size 1.27 1.27)) hide)
    )
    (property "Datasheet" "~" (id 3) (at 83.82 116.84 0)
      (effects (font (size 1.27 1.27)) hide)
    )
  )

  (symbol (lib_id "diode:QF838") (at 163.83 83.82 180) (unit 1)
    (in_bom yes) (on_board yes)
    (uuid "00000000-0000-0000-0000-00005c601486")
    (property "Reference" "D1" (id 0) (at 163.83 87.63 0))
    (property "Value" "QF838" (id 1) (at 163.83 80.01 0))
    (property "Footprint" "kicad_pcb:LED_0603_1608Metric" (id 2) (at 163.83 83.82 0)
      (effects (font (size 1.27 1.27)) hide)
    )
    (property "Datasheet" "$HOME/parts/id/QF838/LG_L29K.pdf" (id 3) (at 163.83 83.82 0)
      (effects (font (size 1.27 1.27)) hide)
    )
  )

  (symbol (lib_id "Device:C") (at 67.31 99.06 0) (unit 1)
    (in_bom yes) (on_board yes)
    (uuid "00000000-0000-0000-0000-00005c610992")
    (property "Reference" "C1" (id 0) (at 63.5 99.06 90))
    (property "Value" "4.7 uF" (id 1) (at 71.12 99.06 90))
    (property "Footprint" "kicad_pcb:C_0603_1608Metric" (id 2) (at 71.12 101.6 0)
      (effects (font (size 1.27 1.27)) (justify left) hide)
    )
    (property "Datasheet" "" (id 3) (at 67.31 99.06 0))
  )

  (symbol (lib_id "Device:C") (at 92.71 71.12 0) (unit 1)
    (in_bom yes) (on_board yes)
    (uuid "00000000-0000-0000-0000-00005c64d2ec")
    (property "Reference" "C3" (id 0) (at 88.9 71.12 90))
    (property "Value" "1 uF" (id 1) (at 96.52 71.12 90))
    (property "Footprint" "kicad_pcb:C_0402_1005Metric" (id 2) (at 96.52 73.66 0)
      (effects (font (size 1.27 1.27)) (justify left) hide)
    )
    (property "Datasheet" "" (id 3) (at 92.71 71.12 0))
  )

  (symbol (lib_id "Device:C") (at 95.25 124.46 0) (unit 1)
    (in_bom yes) (on_board yes)
    (uuid "00000000-0000-0000-0000-00005c60e45e")
    (property "Reference" "C4" (id 0) (at 91.44 124.46 90))
    (property "Value" "1 uF" (id 1) (at 99.06 124.46 90))
    (property "Footprint" "kicad_pcb:C_0402_1005Metric" (id 2) (at 99.06 127 0)
      (effects (font (size 1.27 1.27)) (justify left) hide)
    )
    (property "Datasheet" "" (id 3) (at 95.25 124.46 0))
  )

  (symbol (lib_id "Device:C") (at 102.87 71.12 0) (unit 1)
    (in_bom yes) (on_board yes)
    (uuid "00000000-0000-0000-0000-00005c652d46")
    (property "Reference" "C6" (id 0) (at 99.06 71.12 90))
    (property "Value" "1 uF" (id 1) (at 106.68 71.12 90))
    (property "Footprint" "kicad_pcb:C_0402_1005Metric" (id 2) (at 106.68 73.66 0)
      (effects (font (size 1.27 1.27)) (justify left) hide)
    )
    (property "Datasheet" "" (id 3) (at 102.87 71.12 0))
  )

  (symbol (lib_id "Device:C") (at 105.41 124.46 0) (unit 1)
    (in_bom yes) (on_board yes)
    (uuid "00000000-0000-0000-0000-00005c60be4c")
    (property "Reference" "C5" (id 0) (at 101.6 124.46 90))
    (property "Value" "1 uF" (id 1) (at 109.22 124.46 90))
    (property "Footprint" "kicad_pcb:C_0402_1005Metric" (id 2) (at 109.22 127 0)
      (effects (font (size 1.27 1.27)) (justify left) hide)
    )
    (property "Datasheet" "" (id 3) (at 105.41 124.46 0))
  )

  (symbol (lib_id "connector:6BPPF") (at 195.58 52.07 0) (unit 1)
    (in_bom yes) (on_board yes)
    (uuid "d9c382e3-1e5c-4998-b9cb-a7c305c5c553")
    (property "Reference" "P6" (id 0) (at 198.1455 53.8353 0)
      (effects (font (size 1.27 1.27)) (justify left))
    )
    (property "Value" "6BPPF" (id 1) (at 195.58 48.26 0)
      (effects (font (size 1.27 1.27)) hide)
    )
    (property "Footprint" "kicad_pcb:U.FL_Molex_MCRF_73412-0110_Vertical" (id 2) (at 195.58 48.26 0)
      (effects (font (size 1.27 1.27)) hide)
    )
    (property "Datasheet" "$PARTS/6BPPF/A-1JB.pdf" (id 3) (at 195.58 52.07 0)
      (effects (font (size 1.27 1.27)) hide)
    )
  )

  (symbol (lib_id "connector:6BPPF") (at 195.58 64.77 0) (unit 1)
    (in_bom yes) (on_board yes)
    (uuid "fbf8c470-39a2-4cff-9016-614a708b805e")
    (property "Reference" "P4" (id 0) (at 198.1455 66.5353 0)
      (effects (font (size 1.27 1.27)) (justify left))
    )
    (property "Value" "6BPPF" (id 1) (at 195.58 60.96 0)
      (effects (font (size 1.27 1.27)) hide)
    )
    (property "Footprint" "kicad_pcb:U.FL_Molex_MCRF_73412-0110_Vertical" (id 2) (at 195.58 60.96 0)
      (effects (font (size 1.27 1.27)) hide)
    )
    (property "Datasheet" "$PARTS/6BPPF/A-1JB.pdf" (id 3) (at 195.58 64.77 0)
      (effects (font (size 1.27 1.27)) hide)
    )
  )

  (symbol (lib_id "connector:6BPPF") (at 195.58 77.47 0) (unit 1)
    (in_bom yes) (on_board yes)
    (uuid "f20578dd-4031-433f-82e2-a5fbf8ecd61a")
    (property "Reference" "P5" (id 0) (at 198.1455 79.2353 0)
      (effects (font (size 1.27 1.27)) (justify left))
    )
    (property "Value" "6BPPF" (id 1) (at 195.58 73.66 0)
      (effects (font (size 1.27 1.27)) hide)
    )
    (property "Footprint" "kicad_pcb:U.FL_Molex_MCRF_73412-0110_Vertical" (id 2) (at 195.58 73.66 0)
      (effects (font (size 1.27 1.27)) hide)
    )
    (property "Datasheet" "$PARTS/6BPPF/A-1JB.pdf" (id 3) (at 195.58 77.47 0)
      (effects (font (size 1.27 1.27)) hide)
    )
  )

  (symbol (lib_id "connector:6BPPF") (at 195.58 90.17 0) (unit 1)
    (in_bom yes) (on_board yes)
    (uuid "556559e1-308e-4b3f-b021-7eb9d9f0f12a")
    (property "Reference" "P2" (id 0) (at 198.1455 91.9353 0)
      (effects (font (size 1.27 1.27)) (justify left))
    )
    (property "Value" "6BPPF" (id 1) (at 195.58 86.36 0)
      (effects (font (size 1.27 1.27)) hide)
    )
    (property "Footprint" "kicad_pcb:U.FL_Molex_MCRF_73412-0110_Vertical" (id 2) (at 195.58 86.36 0)
      (effects (font (size 1.27 1.27)) hide)
    )
    (property "Datasheet" "$PARTS/6BPPF/A-1JB.pdf" (id 3) (at 195.58 90.17 0)
      (effects (font (size 1.27 1.27)) hide)
    )
  )

  (symbol (lib_id "connector:6BPPF") (at 195.58 102.87 0) (unit 1)
    (in_bom yes) (on_board yes)
    (uuid "60e10f4a-05f3-47a9-b286-ad7d7a9852e7")
    (property "Reference" "P3" (id 0) (at 198.1455 104.6353 0)
      (effects (font (size 1.27 1.27)) (justify left))
    )
    (property "Value" "6BPPF" (id 1) (at 195.58 99.06 0)
      (effects (font (size 1.27 1.27)) hide)
    )
    (property "Footprint" "kicad_pcb:U.FL_Molex_MCRF_73412-0110_Vertical" (id 2) (at 195.58 99.06 0)
      (effects (font (size 1.27 1.27)) hide)
    )
    (property "Datasheet" "$PARTS/6BPPF/A-1JB.pdf" (id 3) (at 195.58 102.87 0)
      (effects (font (size 1.27 1.27)) hide)
    )
  )

  (symbol (lib_id "Connector:Conn_01x04_Male") (at 149.86 149.86 0) (unit 1)
    (in_bom yes) (on_board yes)
    (uuid "6c8966ea-53bf-4b49-aa41-8533ba61f329")
    (property "Reference" "J3" (id 0) (at 152.5524 142.8558 0))
    (property "Value" "33HPC" (id 1) (at 152.5524 145.1545 0))
    (property "Footprint" "Connector_JST:JST_SH_SM04B-SRSS-TB_1x04-1MP_P1.00mm_Horizontal" (id 2) (at 149.86 149.86 0)
      (effects (font (size 1.27 1.27)) hide)
    )
    (property "Datasheet" "~" (id 3) (at 149.86 149.86 0)
      (effects (font (size 1.27 1.27)) hide)
    )
  )

  (symbol (lib_id "Connector:Conn_01x04_Male") (at 179.07 123.19 0) (unit 1)
    (in_bom yes) (on_board yes)
    (uuid "81af03dc-ae4e-4f03-9a79-86e35d2a4791")
    (property "Reference" "J2" (id 0) (at 181.7624 116.1858 0))
    (property "Value" "33HPC" (id 1) (at 181.7624 118.4845 0))
    (property "Footprint" "Connector_JST:JST_SH_SM04B-SRSS-TB_1x04-1MP_P1.00mm_Horizontal" (id 2) (at 179.07 123.19 0)
      (effects (font (size 1.27 1.27)) hide)
    )
    (property "Datasheet" "~" (id 3) (at 179.07 123.19 0)
      (effects (font (size 1.27 1.27)) hide)
    )
  )

  (symbol (lib_id "connector:SWD") (at 157.48 99.06 0) (unit 1)
    (in_bom yes) (on_board yes)
    (uuid "d84bddff-8831-42c7-8c6a-44d30657d943")
    (property "Reference" "P1" (id 0) (at 165.8621 104.2606 0)
      (effects (font (size 1.27 1.27)) (justify left))
    )
    (property "Value" "SWD" (id 1) (at 165.8621 106.5593 0)
      (effects (font (size 1.27 1.27)) (justify left))
    )
    (property "Footprint" "Connector_Hirose:Hirose_DF13-04P-1.25DSA_1x04_P1.25mm_Vertical" (id 2) (at 157.48 97.79 0)
      (effects (font (size 1.27 1.27)) (justify left) hide)
    )
    (property "Datasheet" "" (id 3) (at 163.83 99.06 90))
  )

  (symbol (lib_id "connector:CGH8B") (at 45.72 96.52 0) (unit 1)
    (in_bom yes) (on_board yes)
    (uuid "e1e729b0-f0ee-4f8b-8fb8-76ba49356639")
    (property "Reference" "J1" (id 0) (at 42.7355 92.4368 0))
    (property "Value" "CGH8B" (id 1) (at 42.7355 94.7355 0))
    (property "Footprint" "kicad_pcb:USB_C_Receptacle_HRO_TYPE-C-31-M-12" (id 2) (at 35.56 95.25 0)
      (effects (font (size 1.27 1.27)) (justify left) hide)
    )
    (property "Datasheet" "${PARTS}/CGH8B/TYPE-C-31-M-12.pdf" (id 3) (at 41.91 96.52 90)
      (effects (font (size 1.27 1.27)) hide)
    )
  )

  (symbol (lib_id "ic:VFK7T") (at 124.46 101.6 0) (unit 1)
    (in_bom yes) (on_board yes)
    (uuid "00000000-0000-0000-0000-00005c5e6c8c")
    (property "Reference" "U2" (id 0) (at 109.22 80.01 0)
      (effects (font (size 1.27 1.27)) (justify left))
    )
    (property "Value" "VFK7T" (id 1) (at 139.7 80.01 0)
      (effects (font (size 1.27 1.27)) (justify right))
    )
    (property "Footprint" "kicad_pcb:QFN-24-1EP_5x5mm_P0.65mm_EP3.6x3.6mm" (id 2) (at 121.92 93.98 90)
      (effects (font (size 1.27 1.27)) (justify right) hide)
    )
    (property "Datasheet" "$PARTS/VFK7T/efm32hg-datasheet.pdf" (id 3) (at 124.46 104.14 90)
      (effects (font (size 1.27 1.27)) hide)
    )
  )

  (sheet_instances
    (path "/" (page "1"))
  )

  (symbol_instances
    (path "/00000000-0000-0000-0000-00005c5ed8d1"
      (reference "#PWR01") (unit 1) (value "GND") (footprint "")
    )
    (path "/339046f2-9d27-41f8-9857-481b64c3234a"
      (reference "#PWR02") (unit 1) (value "ground") (footprint "")
    )
    (path "/b7f0eb16-b882-494a-a5ca-96363e50d5bf"
      (reference "#PWR03") (unit 1) (value "ground") (footprint "")
    )
    (path "/00000000-0000-0000-0000-00005c61099c"
      (reference "#PWR04") (unit 1) (value "ground") (footprint "")
    )
    (path "/00000000-0000-0000-0000-00005c64d2f6"
      (reference "#PWR011") (unit 1) (value "ground") (footprint "")
    )
    (path "/00000000-0000-0000-0000-00005c60e468"
      (reference "#PWR012") (unit 1) (value "ground") (footprint "")
    )
    (path "/00000000-0000-0000-0000-00005c60c764"
      (reference "#PWR014") (unit 1) (value "ground") (footprint "")
    )
    (path "/00000000-0000-0000-0000-00005c5efe28"
      (reference "#PWR015") (unit 1) (value "ground") (footprint "")
    )
    (path "/00000000-0000-0000-0000-00005c5ef5e0"
      (reference "#PWR017") (unit 1) (value "ground") (footprint "")
    )
    (path "/00000000-0000-0000-0000-00005c603807"
      (reference "#PWR018") (unit 1) (value "ground") (footprint "")
    )
    (path "/75866108-06c4-44c3-a123-6dd187003397"
      (reference "#PWR0101") (unit 1) (value "+3.3V") (footprint "")
    )
    (path "/671b5f9b-dcad-4172-b756-4824d12c08a5"
      (reference "#PWR0102") (unit 1) (value "+3.3V") (footprint "")
    )
    (path "/f5386a48-88c8-4472-aeb4-b061609f69c3"
      (reference "#PWR0103") (unit 1) (value "+3.3V") (footprint "")
    )
    (path "/d4c8cfa2-d6d0-42b5-b2db-83292b0affef"
      (reference "#PWR0104") (unit 1) (value "+3.3V") (footprint "")
    )
    (path "/2ffdec92-421c-4fde-8047-7da5997b7bbf"
      (reference "#PWR0105") (unit 1) (value "ground") (footprint "")
    )
    (path "/6a1829ea-0fdb-4ec0-89c1-fbd8d5d3c026"
      (reference "#PWR0106") (unit 1) (value "ground") (footprint "")
    )
    (path "/7c3f522f-a0f1-4eb7-8fb5-5c66a5291da3"
      (reference "#PWR0107") (unit 1) (value "ground") (footprint "")
    )
    (path "/d2468309-3ff8-4a11-a979-091d028c317d"
      (reference "#PWR0108") (unit 1) (value "ground") (footprint "")
    )
    (path "/c93c3db6-0399-4b49-adbf-249edfd8c7e3"
      (reference "#PWR0109") (unit 1) (value "ground") (footprint "")
    )
    (path "/d2091610-ae5a-4940-b9e9-fe60e1b614b1"
      (reference "#PWR0110") (unit 1) (value "+3.3V") (footprint "")
    )
    (path "/6e5979e5-4a17-4fba-bdd8-df5ae1b23158"
      (reference "#PWR0111") (unit 1) (value "+3.3V") (footprint "")
    )
    (path "/474ec2c8-da0f-4b0c-bae6-9d662f9033f0"
      (reference "#PWR0112") (unit 1) (value "ground") (footprint "")
    )
    (path "/0ca550cb-a934-4221-a531-8e58d92600c4"
      (reference "#PWR0113") (unit 1) (value "ground") (footprint "")
    )
    (path "/00000000-0000-0000-0000-00005c610992"
      (reference "C1") (unit 1) (value "4.7 uF") (footprint "kicad_pcb:C_0603_1608Metric")
    )
    (path "/00000000-0000-0000-0000-00005c64d2ec"
      (reference "C3") (unit 1) (value "1 uF") (footprint "kicad_pcb:C_0402_1005Metric")
    )
    (path "/00000000-0000-0000-0000-00005c60e45e"
      (reference "C4") (unit 1) (value "1 uF") (footprint "kicad_pcb:C_0402_1005Metric")
    )
    (path "/00000000-0000-0000-0000-00005c60be4c"
      (reference "C5") (unit 1) (value "1 uF") (footprint "kicad_pcb:C_0402_1005Metric")
    )
    (path "/00000000-0000-0000-0000-00005c652d46"
      (reference "C6") (unit 1) (value "1 uF") (footprint "kicad_pcb:C_0402_1005Metric")
    )
    (path "/00000000-0000-0000-0000-00005c601486"
      (reference "D1") (unit 1) (value "QF838") (footprint "kicad_pcb:LED_0603_1608Metric")
    )
    (path "/e1e729b0-f0ee-4f8b-8fb8-76ba49356639"
      (reference "J1") (unit 1) (value "CGH8B") (footprint "kicad_pcb:USB_C_Receptacle_HRO_TYPE-C-31-M-12")
    )
    (path "/81af03dc-ae4e-4f03-9a79-86e35d2a4791"
      (reference "J2") (unit 1) (value "33HPC") (footprint "Connector_JST:JST_SH_SM04B-SRSS-TB_1x04-1MP_P1.00mm_Horizontal")
    )
    (path "/6c8966ea-53bf-4b49-aa41-8533ba61f329"
      (reference "J3") (unit 1) (value "33HPC") (footprint "Connector_JST:JST_SH_SM04B-SRSS-TB_1x04-1MP_P1.00mm_Horizontal")
    )
    (path "/9d5eeca6-b646-45e9-ad00-3cef0bf4a883"
      (reference "JP1") (unit 1) (value "SolderJumper_2_Bridged") (footprint "Jumper:SolderJumper-2_P1.3mm_Bridged_RoundedPad1.0x1.5mm")
    )
    (path "/d84bddff-8831-42c7-8c6a-44d30657d943"
      (reference "P1") (unit 1) (value "SWD") (footprint "Connector_Hirose:Hirose_DF13-04P-1.25DSA_1x04_P1.25mm_Vertical")
    )
    (path "/556559e1-308e-4b3f-b021-7eb9d9f0f12a"
      (reference "P2") (unit 1) (value "6BPPF") (footprint "kicad_pcb:U.FL_Molex_MCRF_73412-0110_Vertical")
    )
    (path "/60e10f4a-05f3-47a9-b286-ad7d7a9852e7"
      (reference "P3") (unit 1) (value "6BPPF") (footprint "kicad_pcb:U.FL_Molex_MCRF_73412-0110_Vertical")
    )
    (path "/fbf8c470-39a2-4cff-9016-614a708b805e"
      (reference "P4") (unit 1) (value "6BPPF") (footprint "kicad_pcb:U.FL_Molex_MCRF_73412-0110_Vertical")
    )
    (path "/f20578dd-4031-433f-82e2-a5fbf8ecd61a"
      (reference "P5") (unit 1) (value "6BPPF") (footprint "kicad_pcb:U.FL_Molex_MCRF_73412-0110_Vertical")
    )
    (path "/d9c382e3-1e5c-4998-b9cb-a7c305c5c553"
      (reference "P6") (unit 1) (value "6BPPF") (footprint "kicad_pcb:U.FL_Molex_MCRF_73412-0110_Vertical")
    )
    (path "/8a423037-e707-4f3d-a725-f8bf569ce0ed"
      (reference "R1") (unit 1) (value "5.1 k") (footprint "kicad_pcb:R_0402_1005Metric")
    )
    (path "/0e9282ba-2ad7-4ae4-944e-a3db728cdeda"
      (reference "R2") (unit 1) (value "5.1 k") (footprint "kicad_pcb:R_0402_1005Metric")
    )
    (path "/00000000-0000-0000-0000-00005c62cbf4"
      (reference "R3") (unit 1) (value "15") (footprint "kicad_pcb:R_0402_1005Metric")
    )
    (path "/00000000-0000-0000-0000-00005c62c7b7"
      (reference "R4") (unit 1) (value "15") (footprint "kicad_pcb:R_0402_1005Metric")
    )
    (path "/00000000-0000-0000-0000-00005c602457"
      (reference "R5") (unit 1) (value "5.1 k") (footprint "kicad_pcb:R_0402_1005Metric")
    )
    (path "/b69b7440-0cda-4b52-b1de-bb87ef83e8c9"
      (reference "R6") (unit 1) (value "330") (footprint "kicad_pcb:R_0402_1005Metric")
    )
    (path "/cb185f7f-21c5-4ce8-bb72-6bcb11026ada"
      (reference "R7") (unit 1) (value "330") (footprint "kicad_pcb:R_0402_1005Metric")
    )
    (path "/d818231a-cc8c-4861-8985-84313fe1a07e"
      (reference "R8") (unit 1) (value "330") (footprint "kicad_pcb:R_0402_1005Metric")
    )
    (path "/f018c541-7542-43cb-a98b-988f6bb6ee04"
      (reference "R9") (unit 1) (value "330") (footprint "kicad_pcb:R_0402_1005Metric")
    )
    (path "/f2f15061-6d20-4535-948b-1801eef8e79e"
      (reference "R10") (unit 1) (value "330") (footprint "kicad_pcb:R_0402_1005Metric")
    )
    (path "/00000000-0000-0000-0000-00005c5e5c2b"
      (reference "TH1") (unit 1) (value "tooling_hole") (footprint "kicad_pcb:tooling_hole_2.55")
    )
    (path "/00000000-0000-0000-0000-00005c5e5781"
      (reference "TH2") (unit 1) (value "tooling_hole") (footprint "kicad_pcb:tooling_hole_2.55")
    )
    (path "/00000000-0000-0000-0000-00005c5e6c8c"
      (reference "U2") (unit 1) (value "VFK7T") (footprint "kicad_pcb:QFN-24-1EP_5x5mm_P0.65mm_EP3.6x3.6mm")
    )
  )
)
